{
  "implemented": true,
  "name": "Aipom",
  "nationalPokedexNumber": 190,
  "primaryType": "normal",
  "abilities": [
    "runaway",
    "pickup",
    "h:skilllink"
  ],
  "baseStats": {
    "hp": 55,
    "attack": 70,
    "defence": 55,
    "special_attack": 40,
    "special_defence": 55,
    "speed": 85
  },
  "catchRate": 45,
  "maleRatio": 0.5,
  "shoulderMountable": false,
  "baseExperienceYield": 72,
  "experienceGroup": "fast",
  "eggCycles": 20,
  "eggGroups": [
    "field"
  ],
  "moves": [
    "1:scratch",
    "1:tailwhip",
    "4:sandattack",
    "8:astonish",
    "11:batonpass",
    "15:tickle",
    "18:furyswipes",
    "22:swift",
    "25:screech",
    "29:agility",
    "32:doublehit",
    "36:fling",
    "39:nastyplot",
    "43:lastresort",
    "egg:agility",
    "egg:beatup",
    "egg:bounce",
    "egg:counter",
    "egg:covet",
    "egg:doubleslap",
    "egg:fakeout",
    "egg:pursuit",
    "egg:quickguard",
    "egg:revenge",
    "egg:screech",
    "egg:slam",
    "egg:spite",
    "egg:switcheroo",
    "egg:tailslap",
    "tm:acrobatics",
    "tm:aerialace",
    "tm:attract",
    "tm:brickbreak",
    "tm:captivate",
    "tm:confide",
    "tm:cut",
    "tm:dig",
    "tm:doubleteam",
    "tm:dreameater",
    "tm:endure",
    "tm:facade",
    "tm:fling",
    "tm:focuspunch",
    "tm:frustration",
    "tm:grassknot",
    "tm:hiddenpower",
    "tm:honeclaws",
    "tm:irontail",
    "tm:lowsweep",
    "tm:naturalgift",
    "tm:payback",
    "tm:poweruppunch",
    "tm:protect",
    "tm:raindance",
    "tm:rest",
    "tm:retaliate",
    "tm:return",
    "tm:rocksmash",
    "tm:round",
    "tm:secretpower",
    "tm:shadowball",
    "tm:shadowclaw",
    "tm:shockwave",
    "tm:sleeptalk",
    "tm:snatch",
    "tm:solarbeam",
    "tm:strength",
    "tm:substitute",
    "tm:sunnyday",
    "tm:swagger",
    "tm:taunt",
    "tm:thief",
    "tm:thunder",
    "tm:thunderbolt",
    "tm:thunderwave",
    "tm:toxic",
    "tm:uturn",
    "tm:waterpulse",
    "tm:workup",
    "tutor:agility",
    "tutor:attract",
    "tutor:batonpass",
    "tutor:beatup",
    "tutor:bodyslam",
    "tutor:bounce",
    "tutor:counter",
    "tutor:covet",
    "tutor:curse",
    "tutor:cut",
    "tutor:defensecurl",
    "tutor:detect",
    "tutor:doubleedge",
    "tutor:doubleslap",
    "tutor:doubleteam",
    "tutor:dreameater",
    "tutor:dynamicpunch",
    "tutor:endure",
    "tutor:fakeout",
    "tutor:firepunch",
    "tutor:focuspunch",
    "tutor:foulplay",
    "tutor:frustration",
    "tutor:furycutter",
    "tutor:furyswipes",
    "tutor:gunkshot",
    "tutor:headbutt",
    "tutor:hiddenpower",
    "tutor:icepunch",
    "tutor:irontail",
    "tutor:knockoff",
    "tutor:lastresort",
    "tutor:lowkick",
    "tutor:megakick",
    "tutor:megapunch",
    "tutor:metronome",
    "tutor:mimic",
    "tutor:mudslap",
    "tutor:nightmare",
    "tutor:protect",
    "tutor:pursuit",
    "tutor:rest",
    "tutor:return",
    "tutor:rocksmash",
    "tutor:roleplay",
    "tutor:sandattack",
    "tutor:scratch",
    "tutor:screech",
    "tutor:seedbomb",
    "tutor:seismictoss",
    "tutor:shadowball",
    "tutor:shockwave",
    "tutor:slam",
    "tutor:sleeptalk",
    "tutor:snatch",
    "tutor:snore",
    "tutor:spite",
    "tutor:strength",
    "tutor:substitute",
    "tutor:sunnyday",
    "tutor:swagger",
    "tutor:swift",
    "tutor:tailwhip",
    "tutor:thief",
    "tutor:thunder",
    "tutor:thunderpunch",
    "tutor:thunderwave",
    "tutor:toxic",
    "tutor:uproar",
    "tutor:waterpulse",
    "tutor:zapcannon"
  ],
  "labels": [
    "gen2"
  ],
  "pokedex": [
    "cobblemon.species.aipom.desc"
  ],
  "evolutions": [
    {
      "id": "aipom_ambipom",
      "variant": "level_up",
      "result": "ambipom",
      "consumeHeldItem": false,
      "learnableMoves": [],
      "requirements": [
        {
          "variant": "has_move",
          "move": "doublehit"
        }
      ]
    }
  ],
  "baseScale": 0.68,
  "hitbox": {
    "width": 0.8,
    "height": 1.4,
    "fixed": false
  },
  "baseFriendship": 70,
  "evYield": {
    "hp": 0,
    "attack": 0,
    "defence": 0,
    "special_attack": 0,
    "special_defence": 0,
    "speed": 1
  },
  "height": 8,
  "weight": 115,
  "aspects": [],
  "cannotDynamax": false
}