{
  "name": "Mantine",
  "nationalPokedexNumber": 226,
  "primaryType": "water",
  "secondaryType": "flying",
  "abilities": [
    "swiftswim",
    "waterabsorb",
    "h:waterveil"
  ],
  "baseStats": {
    "hp": 85,
    "attack": 40,
    "defence": 70,
    "special_attack": 80,
    "special_defence": 140,
    "speed": 70
  },
  "catchRate": 25,
  "maleRatio": 0.5,
  "shoulderMountable": false,
  "baseExperienceYield": 170,
  "experienceGroup": "slow",
  "eggCycles": 25,
  "eggGroups": [
    "water_1"
  ],
  "moves": [
    "1:bubble",
    "1:bulletseed",
    "1:psybeam",
    "1:roost",
    "1:signalbeam",
    "1:supersonic",
    "1:tackle",
    "1:watergun",
    "1:wingattack",
    "11:confuseray",
    "12:waterpulse",
    "16:wideguard",
    "20:agility",
    "24:bubblebeam",
    "28:headbutt",
    "32:airslash",
    "36:aquaring",
    "40:bounce",
    "44:takedown",
    "48:hydropump",
    "egg:amnesia",
    "egg:confuseray",
    "egg:haze",
    "egg:hydropump",
    "egg:mirrorcoat",
    "egg:mudsport",
    "egg:rockslide",
    "egg:slam",
    "egg:splash",
    "egg:tailwind",
    "egg:twister",
    "egg:watersport",
    "egg:wideguard",
    "tm:acrobatics",
    "tm:aerialace",
    "tm:agility",
    "tm:airslash",
    "tm:amnesia",
    "tm:assurance",
    "tm:attract",
    "tm:blizzard",
    "tm:bodypress",
    "tm:bodyslam",
    "tm:bounce",
    "tm:brine",
    "tm:bulldoze",
    "tm:bulletseed",
    "tm:captivate",
    "tm:confide",
    "tm:defog",
    "tm:dive",
    "tm:doubleteam",
    "tm:earthquake",
    "tm:endure",
    "tm:facade",
    "tm:frustration",
    "tm:gigaimpact",
    "tm:gunkshot",
    "tm:hail",
    "tm:helpinghand",
    "tm:hiddenpower",
    "tm:hurricane",
    "tm:hydropump",
    "tm:hyperbeam",
    "tm:icebeam",
    "tm:icywind",
    "tm:ironhead",
    "tm:liquidation",
    "tm:naturalgift",
    "tm:protect",
    "tm:raindance",
    "tm:rest",
    "tm:return",
    "tm:rockblast",
    "tm:rockslide",
    "tm:rocktomb",
    "tm:roost",
    "tm:round",
    "tm:scald",
    "tm:secretpower",
    "tm:seedbomb",
    "tm:sleeptalk",
    "tm:snore",
    "tm:substitute",
    "tm:surf",
    "tm:swagger",
    "tm:swift",
    "tm:toxic",
    "tm:waterfall",
    "tm:waterpulse",
    "tm:whirlpool",
    "tutor:agility",
    "tutor:aircutter",
    "tutor:aquatail",
    "tutor:attract",
    "tutor:blizzard",
    "tutor:bodyslam",
    "tutor:bounce",
    "tutor:bubble",
    "tutor:bubblebeam",
    "tutor:confuseray",
    "tutor:curse",
    "tutor:defog",
    "tutor:dive",
    "tutor:doubleedge",
    "tutor:doubleteam",
    "tutor:dualwingbeat",
    "tutor:endure",
    "tutor:frustration",
    "tutor:gunkshot",
    "tutor:haze",
    "tutor:headbutt",
    "tutor:helpinghand",
    "tutor:hiddenpower",
    "tutor:hydropump",
    "tutor:icywind",
    "tutor:ironhead",
    "tutor:liquidation",
    "tutor:mimic",
    "tutor:mirrorcoat",
    "tutor:mudslap",
    "tutor:protect",
    "tutor:raindance",
    "tutor:rest",
    "tutor:return",
    "tutor:seedbomb",
    "tutor:signalbeam",
    "tutor:slam",
    "tutor:sleeptalk",
    "tutor:snore",
    "tutor:stringshot",
    "tutor:substitute",
    "tutor:supersonic",
    "tutor:surf",
    "tutor:swagger",
    "tutor:swift",
    "tutor:tackle",
    "tutor:tailwind",
    "tutor:takedown",
    "tutor:toxic",
    "tutor:twister",
    "tutor:waterfall",
    "tutor:waterpulse",
    "tutor:whirlpool",
    "tutor:wingattack"
  ],
  "labels": [
    "gen2"
  ],
  "pokedex": [
    "cobblemon.species.mantine.desc"
  ],
  "preEvolution": "mantyke",
  "evolutions": [],
  "baseScale": 1,
  "hitbox": {
    "width": 1,
    "height": 1,
    "fixed": false
  },
  "baseFriendship": 50,
  "evYield": {
    "hp": 0,
    "attack": 0,
    "defence": 0,
    "special_attack": 0,
    "special_defence": 2,
    "speed": 0
  },
  "height": 21,
  "weight": 2200,
  "aspects": [],
  "cannotDynamax": false
}