{
	"format_version": "1.8.0",
	"animations": {
		"animation.pidgeotto.new": {
			"loop": true,
			"bones": {
				"body": {
					"rotation": [-52.5, 0, 0]
				},
				"torso": {
					"rotation": [17.5, 0, 0]
				},
				"wing_left": {
					"rotation": [-9.00717, 20.70481, -24.14867]
				},
				"wing_left2": {
					"rotation": [0, 20, 0]
				},
				"wing_left3": {
					"rotation": [0, -22.5, 0]
				},
				"tail": {
					"rotation": [2.5, 0, 0]
				},
				"neck": {
					"rotation": [32.5, 0, 0]
				},
				"head": {
					"rotation": [7.5, 0, 0]
				},
				"hairstrand": {
					"rotation": [22.5, 0, 25]
				},
				"hairstrand2": {
					"rotation": [-25, 0, 0]
				},
				"jaw": {
					"rotation": [0, 0, 0]
				},
				"leg_left": {
					"rotation": [11.68703, -8.08016, -42.45661]
				},
				"toe_back_left": {
					"rotation": [-50, 0, 0]
				},
				"claw_back_left": {
					"rotation": [-35, 0, 0]
				},
				"toe_inner_left": {
					"rotation": [45, 0, 0]
				},
				"claw_inner_left": {
					"rotation": [27.5, 0, 0]
				},
				"toe_outer_left": {
					"rotation": [52.5, 0, 0]
				},
				"claw_outer_left": {
					"rotation": [42.5, 0, 0]
				},
				"leg_right": {
					"rotation": [11.68703, 8.08016, 42.45661]
				},
				"toe_back_right": {
					"rotation": [-50, 0, 0]
				},
				"claw_back_right": {
					"rotation": [-35, 0, 0]
				},
				"toe_inner_right": {
					"rotation": [45, 0, 0]
				},
				"claw_inner_right": {
					"rotation": [27.5, 0, 0]
				},
				"toe_outer_right": {
					"rotation": [52.5, 0, 0]
				},
				"claw_outer_right": {
					"rotation": [42.5, 0, 0]
				},
				"wing_right": {
					"rotation": [-9.00717, -20.70481, 24.14867]
				},
				"wing_right2": {
					"rotation": [0, -20, 0]
				},
				"wing_right3": {
					"rotation": [0, 22.5, 0]
				}
			}
		},
		"animation.pidgeotto.ground_idle": {
			"loop": true,
			"bones": {
				"wing_left": {
					"rotation": [134.97272, -86.46503, -45.02728],
					"position": [0, -0.5, -2]
				},
				"toe_inner_left": {
					"rotation": [0, 5, 0]
				},
				"toe_outer_left": {
					"rotation": [0, -5, 0]
				},
				"wing_left2": {
					"rotation": [0, 45, 0]
				},
				"wing_left3": {
					"rotation": [0, -37.5, 0]
				},
				"hairstrand": {
					"rotation": [7.5, 0, 12.5]
				},
				"hairstrand2": {
					"rotation": [-17.5, 0, 0]
				},
				"tail": {
					"rotation": [50, 0, 0]
				},
				"wing_right": {
					"rotation": [134.97272, 86.46503, 45.02728],
					"position": [0, -0.5, -2]
				},
				"wing_right2": {
					"rotation": [0, -35, 0]
				},
				"wing_right3": {
					"rotation": [0, 37.5, 0]
				}
			}
		},
		"animation.pidgeotto.air_idle": {
			"loop": true,
			"bones": {
				"wing_left": {
					"rotation": [0, -5, -15]
				},
				"wing_left3": {
					"rotation": [0, -25, 0]
				},
				"tail": {
					"rotation": [40, 0, 0]
				},
				"wing_left2": {
					"rotation": [0, 10, 0]
				},
				"leg_right": {
					"rotation": [15, 0, 0],
					"position": [0, 0.5, 0.25]
				},
				"leg_right2": {
					"rotation": [-60, 0, 0]
				},
				"foot_right": {
					"rotation": [35, 0, 0]
				},
				"claw_back_right": {
					"rotation": [-45, 0, 0]
				},
				"toe_inner_right": {
					"rotation": [45, 0, 0]
				},
				"toe_outer_right": {
					"rotation": [45, 0, 0]
				},
				"claw_outer_right": {
					"rotation": [45, 0, 0]
				},
				"leg_left": {
					"rotation": [15, 0, 0],
					"position": [0, 0.5, 0.25]
				},
				"leg_left2": {
					"rotation": [-60, 0, 0]
				},
				"foot_left": {
					"rotation": [35, 0, 0]
				},
				"toe_back_left": {
					"rotation": [-45, 0, 0]
				},
				"toe_inner_left": {
					"rotation": [45, 0, 0]
				},
				"toe_outer_left": {
					"rotation": [45, 0, 0]
				},
				"body": {
					"rotation": [-10, 0, 0]
				},
				"wing_right": {
					"rotation": [0, 5, 15]
				},
				"wing_right3": {
					"rotation": [0, 25, 0]
				},
				"toe_back_right": {
					"rotation": [-45, 0, 0]
				},
				"claw_inner_right": {
					"rotation": [45, 0, 0]
				},
				"claw_back_left": {
					"rotation": [-45, 0, 0]
				},
				"claw_inner_left": {
					"rotation": [45, 0, 0]
				},
				"claw_outer_left": {
					"rotation": [45, 0, 0]
				},
				"wing_right2": {
					"rotation": [0, -10, 0]
				},
				"neck": {
					"rotation": [30, 0, 0]
				},
				"head": {
					"rotation": [-15, 0, 0]
				},
				"toe_outer_left2": {
					"rotation": [30, 0, 0]
				},
				"toe_inner_left2": {
					"rotation": [30, 0, 0]
				},
				"toe_outer_right2": {
					"rotation": [30, 0, 0]
				},
				"toe_inner_right2": {
					"rotation": [30, 0, 0]
				},
				"hairstrand": {
					"rotation": [7.5, 0, 12.5]
				},
				"hairstrand2": {
					"rotation": [0, 0, 17.5]
				}
			}
		},
		"animation.pidgeotto.air_fly": {
			"loop": true,
			"bones": {
				"wing_left": {
					"rotation": [0.5, 0, -5]
				},
				"wing_left3": {
					"rotation": [0, -15, 0]
				},
				"torso": {
					"rotation": [2.5, 0, 0]
				},
				"tail": {
					"rotation": [7.5, 0, 0]
				},
				"wing_left2": {
					"rotation": [0, 0, 0]
				},
				"leg_right": {
					"position": [0, 1, 0.25]
				},
				"leg_right2": {
					"rotation": [-60, 0, 0]
				},
				"foot_right": {
					"rotation": [35, 0, 0]
				},
				"claw_back_right": {
					"rotation": [-45, 0, 0]
				},
				"toe_inner_right": {
					"rotation": [45, 0, 0]
				},
				"toe_outer_right": {
					"rotation": [45, 0, 0]
				},
				"claw_outer_right": {
					"rotation": [45, 0, 0]
				},
				"leg_left": {
					"position": [0, 1, 0.25]
				},
				"leg_left2": {
					"rotation": [-65, 0, 0]
				},
				"foot_left": {
					"rotation": [45, 0, 0]
				},
				"toe_back_left": {
					"rotation": [-60, 0, 0]
				},
				"toe_inner_left": {
					"rotation": [45, 0, 0]
				},
				"toe_outer_left": {
					"rotation": [45, 0, 0]
				},
				"body": {
					"rotation": [12.5, 0, 0]
				},
				"head": {
					"rotation": [-75, 0, 0]
				},
				"toe_back_right": {
					"rotation": [-60, 0, 0]
				},
				"claw_inner_right": {
					"rotation": [45, 0, 0]
				},
				"claw_back_left": {
					"rotation": [-45, 0, 0]
				},
				"claw_inner_left": {
					"rotation": [45, 0, 0]
				},
				"claw_outer_left": {
					"rotation": [45, 0, 0]
				},
				"wing_right": {
					"rotation": [0.5, 0, 5]
				},
				"wing_right3": {
					"rotation": [0, 15, 0]
				},
				"neck": {
					"rotation": [63, 0, 0],
					"position": [0, 1, 0]
				},
				"toe_outer_left2": {
					"rotation": [60, 0, 0]
				},
				"toe_inner_left2": {
					"rotation": [60, 0, 0]
				},
				"toe_outer_right2": {
					"rotation": [60, 0, 0]
				},
				"toe_inner_right2": {
					"rotation": [60, 0, 0]
				},
				"hairstrand": {
					"rotation": [7.5, 0, 12.5]
				},
				"hairstrand2": {
					"rotation": [0, 0, 17.5]
				}
			}
		},
		"animation.pidgeotto.cry": {
			"animation_length": 1.5,
			"bones": {
				"neck": {
					"rotation": {
						"0.0": [0, 0, 0],
						"0.25": [10, 0, 0],
						"1.25": [10, 0, 0],
						"1.5": [0, 0, 0]
					}
				},
				"head": {
					"rotation": {
						"0.0": [0, 0, 0],
						"0.25": [-15, 0, 0],
						"1.25": [-15, 0, 0],
						"1.5": [0, 0, 0]
					}
				},
				"jaw": {
					"rotation": {
						"0.0": [0, 0, 0],
						"0.25": [42.5, 0, 0],
						"1.25": [42.5, 0, 0],
						"1.5": [0, 0, 0]
					}
				}
			}
		},
		"animation.pidgeotto.blink": {
			"animation_length": 0.1667,
			"bones": {
				"eyelid_left": {
					"position": {
						"0.0": [0.1, 0, -0.1],
						"0.125": [0.1, 0, -0.1],
						"0.1667": [0, 0, 0]
					}
				},
				"eyelid_right": {
					"position": {
						"0.0": [-0.1, 0, -0.1],
						"0.125": [-0.1, 0, -0.1],
						"0.1667": [0, 0, 0]
					}
				}
			}
		},
		"animation.pidgeotto.sleep": {
			"loop": true,
			"bones": {
				"torso": {
					"rotation": [12.5, 0, 0],
					"position": [0, -3, 0]
				},
				"crest": {
					"rotation": [7.5, 0, 0]
				},
				"eyelid_right": {
					"position": [-0.1, 0, -0.1]
				},
				"eyelid_left": {
					"position": [0.1, 0, -0.1]
				},
				"wing_right": {
					"rotation": [90, 85, 0],
					"position": [0, -0.5, -1]
				},
				"wing_right2": {
					"rotation": [0, -45, 0]
				},
				"wing_right3": {
					"rotation": [0, 55, 0]
				},
				"wing_left": {
					"rotation": [90, -85, 0],
					"position": [0, -0.5, -1]
				},
				"wing_left2": {
					"rotation": [0, 45, 0]
				},
				"wing_left3": {
					"rotation": [0, -55, 0]
				},
				"tail": {
					"rotation": [50, 0, 0]
				},
				"toe_outer_left": {
					"rotation": [0, 5, 0]
				},
				"toe_inner_left": {
					"rotation": [0, -5, 0]
				},
				"toe_outer_right": {
					"rotation": [0, -5, 0]
				},
				"toe_inner_right": {
					"rotation": [0, 5, 0]
				},
				"hairstrand": {
					"rotation": [7.5, 0, 12.5]
				},
				"hairstrand2": {
					"rotation": [0, 0, 17.5]
				}
			}
		}
	}
}