{
  "name": "Dedenne",
  "nationalPokedexNumber": 702,
  "primaryType": "electric",
  "secondaryType": "fairy",
  "abilities": [
    "cheekpouch",
    "pickup",
    "h:plus"
  ],
  "baseStats": {
    "hp": 67,
    "attack": 58,
    "defence": 57,
    "special_attack": 81,
    "special_defence": 67,
    "speed": 101
  },
  "catchRate": 180,
  "maleRatio": 0.5,
  "shoulderMountable": false,
  "baseExperienceYield": 151,
  "experienceGroup": "medium_fast",
  "eggCycles": 20,
  "eggGroups": [
    "field",
    "fairy"
  ],
  "moves": [
    "1:nuzzle",
    "1:tailwhip",
    "5:tackle",
    "10:charge",
    "15:thundershock",
    "20:charm",
    "23:thunderwave",
    "25:paraboliccharge",
    "30:voltswitch",
    "34:chargebeam",
    "35:rest",
    "35:snore",
    "40:discharge",
    "45:playrough",
    "50:superfang",
    "55:entrainment",
    "60:thunder",
    "egg:covet",
    "egg:eerieimpulse",
    "egg:helpinghand",
    "egg:magnetrise",
    "egg:naturalgift",
    "egg:tearfullook",
    "tm:aerialace",
    "tm:agility",
    "tm:allyswitch",
    "tm:attract",
    "tm:chargebeam",
    "tm:charm",
    "tm:confide",
    "tm:cut",
    "tm:dazzlinggleam",
    "tm:dig",
    "tm:doubleteam",
    "tm:drainingkiss",
    "tm:eerieimpulse",
    "tm:electricterrain",
    "tm:electroball",
    "tm:electroweb",
    "tm:endure",
    "tm:facade",
    "tm:flash",
    "tm:fling",
    "tm:frustration",
    "tm:gigaimpact",
    "tm:grassknot",
    "tm:helpinghand",
    "tm:hiddenpower",
    "tm:hyperbeam",
    "tm:irontail",
    "tm:lightscreen",
    "tm:mistyterrain",
    "tm:playrough",
    "tm:protect",
    "tm:raindance",
    "tm:rest",
    "tm:retaliate",
    "tm:return",
    "tm:round",
    "tm:secretpower",
    "tm:seedbomb",
    "tm:sleeptalk",
    "tm:snore",
    "tm:substitute",
    "tm:sunnyday",
    "tm:swagger",
    "tm:swift",
    "tm:takedown",
    "tm:terablast",
    "tm:thief",
    "tm:thunder",
    "tm:thunderbolt",
    "tm:thunderpunch",
    "tm:thunderwave",
    "tm:toxic",
    "tm:trailblaze",
    "tm:uturn",
    "tm:voltswitch",
    "tm:wildcharge",
    "tutor:allyswitch",
    "tutor:covet",
    "tutor:electroweb",
    "tutor:helpinghand",
    "tutor:irontail",
    "tutor:lastresort",
    "tutor:magnetrise",
    "tutor:recycle",
    "tutor:risingvoltage",
    "tutor:shockwave",
    "tutor:signalbeam",
    "tutor:snore",
    "tutor:superfang",
    "tutor:thunderpunch"
  ],
  "labels": [
    "gen6"
  ],
  "pokedex": [
    "cobblemon.species.dedenne.desc"
  ],
  "evolutions": [],
  "baseScale": 1,
  "hitbox": {
    "width": 1,
    "height": 1,
    "fixed": false
  },
  "baseFriendship": 50,
  "evYield": {
    "hp": 0,
    "attack": 0,
    "defence": 0,
    "special_attack": 0,
    "special_defence": 0,
    "speed": 2
  },
  "height": 2,
  "weight": 22,
  "aspects": [],
  "cannotDynamax": false
}