{
  "type": "minecraft:block",
  "pools": [
    {
      "rolls": 1,
      "bonus_rolls": 0,
      "entries": [
        {
          "type": "minecraft:item",
          "name": "cobblemon:white_mint_seeds"
        }
      ]
    },
    {
      "rolls": 1,
      "entries": [
        {
          "type": "minecraft:item",
          "name": "cobblemon:white_mint_seeds"
        },
        {
          "type": "minecraft:item",
          "name": "cobblemon:red_mint_seeds"
        },
        {
          "type": "minecraft:item",
          "name": "cobblemon:blue_mint_seeds"
        },
        {
          "type": "minecraft:item",
          "name": "cobblemon:cyan_mint_seeds"
        },
        {
          "type": "minecraft:item",
          "name": "cobblemon:green_mint_seeds"
        },
        {
          "type": "minecraft:item",
          "name": "cobblemon:pink_mint_seeds"
        }
      ],
      "conditions": [
        {
          "condition": "minecraft:random_chance",
          "chance": 0.125
        },
        {
          "condition": "minecraft:block_state_property",
          "block": "cobblemon:white_mint",
          "properties": {
            "age": "3"
          }
        }
      ]
    },
    {
      "rolls": 1,
      "entries": [
        {
          "type": "minecraft:item",
          "name": "cobblemon:white_mint_leaf"
        }
      ],
      "conditions": [
        {
          "condition": "minecraft:block_state_property",
          "block": "cobblemon:white_mint",
          "properties": {
            "age": "3"
          }
        }
      ]
    },
    {
      "rolls": 2,
      "entries": [
        {
          "type": "minecraft:item",
          "name": "cobblemon:white_mint_leaf",
          "conditions": [
            {
              "condition": "minecraft:random_chance",
              "chance": 0.5
            }
          ]
        }
      ],
      "conditions": [
        {
          "condition": "minecraft:block_state_property",
          "block": "cobblemon:white_mint",
          "properties": {
            "age": "3"
          }
        }
      ]
    }
  ]
}
