{
  "name": "Abomasnow",
  "nationalPokedexNumber": 460,
  "primaryType": "grass",
  "secondaryType": "ice",
  "abilities": [
    "snowwarning",
    "h:soundproof"
  ],
  "baseStats": {
    "hp": 90,
    "attack": 92,
    "defence": 75,
    "special_attack": 92,
    "special_defence": 85,
    "speed": 60
  },
  "catchRate": 60,
  "maleRatio": 0.5,
  "shoulderMountable": false,
  "forms": [
    {
      "name": "Mega",
      "primaryType": "grass",
      "secondaryType": "ice",
      "abilities": [
        "snowwarning"
      ],
      "baseStats": {
        "hp": 90,
        "attack": 132,
        "defence": 105,
        "special_attack": 132,
        "special_defence": 105,
        "speed": 30
      },
      "catchRate": 60,
      "maleRatio": 0.5,
      "baseExperienceYield": 173,
      "baseFriendship": 50,
      "evYield": {
        "hp": 0,
        "attack": 1,
        "defence": 0,
        "special_attack": 1,
        "special_defence": 0,
        "speed": 0
      },
      "experienceGroup": "slow",
      "eggCycles": 20,
      "eggGroups": [
        "monster",
        "grass"
      ],
      "labels": [
        "gen6",
        "mega"
      ],
      "aspects": [
        "mega"
      ],
      "height": 27,
      "weight": 1850,
      "evolutions": [],
      "cannotDynamax": false,
      "battleOnly": true
    }
  ],
  "baseExperienceYield": 173,
  "experienceGroup": "slow",
  "eggCycles": 20,
  "eggGroups": [
    "monster",
    "grass"
  ],
  "moves": [
    "1:auroraveil",
    "1:icepunch",
    "1:icywind",
    "1:leafage",
    "1:leer",
    "1:mist",
    "1:powdersnow",
    "1:razorleaf",
    "13:grasswhistle",
    "15:iceshard",
    "17:swagger",
    "20:razorleaf",
    "21:mist",
    "25:icywind",
    "26:iceshard",
    "30:swagger",
    "31:ingrain",
    "35:ingrain",
    "36:woodhammer",
    "43:woodhammer",
    "47:blizzard",
    "49:blizzard",
    "56:sheercold",
    "58:sheercold",
    "tm:attract",
    "tm:avalanche",
    "tm:blizzard",
    "tm:bodypress",
    "tm:bodyslam",
    "tm:brickbreak",
    "tm:bulldoze",
    "tm:bulletseed",
    "tm:captivate",
    "tm:chillingwater",
    "tm:confide",
    "tm:doubleteam",
    "tm:earthpower",
    "tm:earthquake",
    "tm:endure",
    "tm:energyball",
    "tm:facade",
    "tm:flash",
    "tm:fling",
    "tm:focusblast",
    "tm:focuspunch",
    "tm:frostbreath",
    "tm:frustration",
    "tm:gigadrain",
    "tm:gigaimpact",
    "tm:grassknot",
    "tm:hail",
    "tm:helpinghand",
    "tm:hiddenpower",
    "tm:hyperbeam",
    "tm:icebeam",
    "tm:icepunch",
    "tm:icespinner",
    "tm:iciclespear",
    "tm:icywind",
    "tm:irontail",
    "tm:leafstorm",
    "tm:lightscreen",
    "tm:lowkick",
    "tm:magicalleaf",
    "tm:megakick",
    "tm:megapunch",
    "tm:mudslap",
    "tm:naturalgift",
    "tm:outrage",
    "tm:protect",
    "tm:raindance",
    "tm:rest",
    "tm:return",
    "tm:rockclimb",
    "tm:rockslide",
    "tm:rocksmash",
    "tm:rocktomb",
    "tm:round",
    "tm:safeguard",
    "tm:scaryface",
    "tm:secretpower",
    "tm:seedbomb",
    "tm:shadowball",
    "tm:sleeptalk",
    "tm:snore",
    "tm:snowscape",
    "tm:solarbeam",
    "tm:stompingtantrum",
    "tm:strength",
    "tm:substitute",
    "tm:swagger",
    "tm:swordsdance",
    "tm:takedown",
    "tm:terablast",
    "tm:toxic",
    "tm:trailblaze",
    "tm:waterpulse",
    "tm:weatherball",
    "tutor:block",
    "tutor:focuspunch",
    "tutor:gigadrain",
    "tutor:grassyglide",
    "tutor:headbutt",
    "tutor:icepunch",
    "tutor:icywind",
    "tutor:irontail",
    "tutor:mudslap",
    "tutor:outrage",
    "tutor:roleplay",
    "tutor:seedbomb",
    "tutor:sleeptalk",
    "tutor:snore",
    "tutor:stompingtantrum",
    "tutor:synthesis",
    "tutor:waterpulse",
    "tutor:worryseed"
  ],
  "labels": [
    "gen4"
  ],
  "pokedex": [
    "cobblemon.species.abomasnow.desc"
  ],
  "preEvolution": "snover",
  "evolutions": [],
  "baseScale": 1,
  "hitbox": {
    "width": 1,
    "height": 1,
    "fixed": false
  },
  "baseFriendship": 50,
  "evYield": {
    "hp": 0,
    "attack": 1,
    "defence": 0,
    "special_attack": 1,
    "special_defence": 0,
    "speed": 0
  },
  "height": 22,
  "weight": 1355,
  "aspects": [],
  "cannotDynamax": false
}