{
  "implemented": true,
  "name": "Gliscor",
  "nationalPokedexNumber": 472,
  "primaryType": "ground",
  "secondaryType": "flying",
  "abilities": [
    "hypercutter",
    "sandveil",
    "h:poisonheal"
  ],
  "baseStats": {
    "hp": 75,
    "attack": 95,
    "defence": 125,
    "special_attack": 45,
    "special_defence": 75,
    "speed": 95
  },
  "catchRate": 30,
  "maleRatio": 0.5,
  "shoulderMountable": false,
  "baseExperienceYield": 179,
  "experienceGroup": "medium_slow",
  "eggCycles": 20,
  "eggGroups": [
    "bug"
  ],
  "moves": [
    "1:firefang",
    "1:guillotine",
    "1:harden",
    "1:icefang",
    "1:knockoff",
    "1:poisonjab",
    "1:sandattack",
    "1:thunderfang",
    "13:quickattack",
    "16:furycutter",
    "16:quickattack",
    "19:feintattack",
    "20:furycutter",
    "22:acrobatics",
    "23:feintattack",
    "27:acrobatics",
    "27:nightslash",
    "27:screech",
    "30:uturn",
    "31:nightslash",
    "31:screech",
    "34:nightslash",
    "34:swordsdance",
    "35:screech",
    "38:swordsdance",
    "38:uturn",
    "40:xscissor",
    "42:uturn",
    "42:xscissor",
    "45:guillotine",
    "45:skyuppercut",
    "45:xscissor",
    "49:guillotine",
    "50:swordsdance",
    "tm:acrobatics",
    "tm:aerialace",
    "tm:attract",
    "tm:brickbreak",
    "tm:brutalswing",
    "tm:bulldoze",
    "tm:captivate",
    "tm:confide",
    "tm:cut",
    "tm:darkpulse",
    "tm:defog",
    "tm:dig",
    "tm:doubleteam",
    "tm:earthquake",
    "tm:endure",
    "tm:facade",
    "tm:falseswipe",
    "tm:fling",
    "tm:frustration",
    "tm:gigaimpact",
    "tm:hiddenpower",
    "tm:honeclaws",
    "tm:hyperbeam",
    "tm:irontail",
    "tm:naturalgift",
    "tm:payback",
    "tm:poisonjab",
    "tm:protect",
    "tm:raindance",
    "tm:rest",
    "tm:return",
    "tm:rockpolish",
    "tm:rockslide",
    "tm:rocksmash",
    "tm:rocktomb",
    "tm:roost",
    "tm:round",
    "tm:sandstorm",
    "tm:secretpower",
    "tm:sleeptalk",
    "tm:sludgebomb",
    "tm:stealthrock",
    "tm:steelwing",
    "tm:stoneedge",
    "tm:strength",
    "tm:strugglebug",
    "tm:substitute",
    "tm:sunnyday",
    "tm:swagger",
    "tm:swordsdance",
    "tm:taunt",
    "tm:thief",
    "tm:torment",
    "tm:toxic",
    "tm:uturn",
    "tm:venoshock",
    "tm:xscissor",
    "tutor:aquatail",
    "tutor:bugbite",
    "tutor:darkpulse",
    "tutor:defog",
    "tutor:earthpower",
    "tutor:furycutter",
    "tutor:headbutt",
    "tutor:irontail",
    "tutor:knockoff",
    "tutor:mudslap",
    "tutor:roost",
    "tutor:skyattack",
    "tutor:sleeptalk",
    "tutor:snore",
    "tutor:stealthrock",
    "tutor:swift",
    "tutor:tailwind",
    "tutor:throatchop"
  ],
  "labels": [
    "gen4"
  ],
  "pokedex": [
    "cobblemon.species.gliscor.desc"
  ],
  "preEvolution": "gligar",
  "evolutions": [],
  "baseScale": 0.9,
  "hitbox": {
    "width": 0.6,
    "height": 1.3,
    "fixed": false
  },
  "baseFriendship": 70,
  "evYield": {
    "hp": 0,
    "attack": 0,
    "defence": 2,
    "special_attack": 0,
    "special_defence": 0,
    "speed": 0
  },
  "height": 20,
  "weight": 425,
  "aspects": [],
  "cannotDynamax": false
}