{
  "implemented": true,
  "name": "Spiritomb",
  "nationalPokedexNumber": 442,
  "primaryType": "ghost",
  "secondaryType": "dark",
  "abilities": [
    "pressure",
    "h:infiltrator"
  ],
  "baseStats": {
    "hp": 50,
    "attack": 92,
    "defence": 108,
    "special_attack": 92,
    "special_defence": 108,
    "speed": 35
  },
  "catchRate": 100,
  "maleRatio": 0.5,
  "shoulderMountable": false,
  "baseExperienceYield": 170,
  "experienceGroup": "medium_fast",
  "eggCycles": 30,
  "eggGroups": [
    "amorphous"
  ],
  "drops": {
    "amount": "1",
    "entries": [
      {
        "item": "cobblemon:spell_tag",
        "percentage": 10
      }
    ]
  },
  "moves": [
    "1:confuseray",
    "1:curse",
    "1:nightshade",
    "1:pursuit",
    "1:shadowsneak",
    "1:spite",
    "5:shadowsneak",
    "7:feintattack",
    "10:spite",
    "13:hypnosis",
    "15:payback",
    "19:dreameater",
    "20:nastyplot",
    "25:hex",
    "25:ominouswind",
    "30:memento",
    "31:suckerpunch",
    "35:suckerpunch",
    "37:nastyplot",
    "40:curse",
    "43:memento",
    "45:shadowball",
    "49:darkpulse",
    "50:darkpulse",
    "55:hypnosis",
    "60:dreameater",
    "egg:allyswitch",
    "egg:captivate",
    "egg:destinybond",
    "egg:disable",
    "egg:foulplay",
    "egg:grudge",
    "egg:imprison",
    "egg:nightmare",
    "egg:painsplit",
    "egg:shadowsneak",
    "egg:smokescreen",
    "tm:allyswitch",
    "tm:attract",
    "tm:bodyslam",
    "tm:calmmind",
    "tm:captivate",
    "tm:confide",
    "tm:confuseray",
    "tm:darkpulse",
    "tm:doubleteam",
    "tm:dreameater",
    "tm:embargo",
    "tm:endure",
    "tm:facade",
    "tm:flash",
    "tm:foulplay",
    "tm:frustration",
    "tm:gigaimpact",
    "tm:helpinghand",
    "tm:hex",
    "tm:hiddenpower",
    "tm:hyperbeam",
    "tm:icywind",
    "tm:imprison",
    "tm:infestation",
    "tm:nastyplot",
    "tm:naturalgift",
    "tm:nightshade",
    "tm:payback",
    "tm:phantomforce",
    "tm:protect",
    "tm:psybeam",
    "tm:psychic",
    "tm:psychup",
    "tm:psyshock",
    "tm:quash",
    "tm:raindance",
    "tm:rest",
    "tm:retaliate",
    "tm:return",
    "tm:rocktomb",
    "tm:round",
    "tm:scaryface",
    "tm:secretpower",
    "tm:shadowball",
    "tm:shockwave",
    "tm:silverwind",
    "tm:skillswap",
    "tm:sleeptalk",
    "tm:snarl",
    "tm:snatch",
    "tm:snore",
    "tm:storedpower",
    "tm:substitute",
    "tm:sunnyday",
    "tm:swagger",
    "tm:taunt",
    "tm:telekinesis",
    "tm:terablast",
    "tm:thief",
    "tm:torment",
    "tm:toxic",
    "tm:trick",
    "tm:trickroom",
    "tm:uproar",
    "tm:waterpulse",
    "tm:willowisp",
    "tm:wonderroom",
    "tutor:allyswitch",
    "tutor:burningjealousy",
    "tutor:darkpulse",
    "tutor:embargo",
    "tutor:foulplay",
    "tutor:icywind",
    "tutor:lashout",
    "tutor:ominouswind",
    "tutor:painsplit",
    "tutor:poltergeist",
    "tutor:psychic",
    "tutor:shockwave",
    "tutor:silverwind",
    "tutor:sleeptalk",
    "tutor:snatch",
    "tutor:snore",
    "tutor:spite",
    "tutor:suckerpunch",
    "tutor:telekinesis",
    "tutor:trick",
    "tutor:uproar",
    "tutor:waterpulse",
    "tutor:wonderroom"
  ],
  "labels": [
    "gen4"
  ],
  "pokedex": [
    "cobblemon.species.spiritomb.desc"
  ],
  "evolutions": [],
  "baseScale": 1.3,
  "hitbox": {
    "width": 0.8,
    "height": 0.8,
    "fixed": false
  },
  "baseFriendship": 50,
  "evYield": {
    "hp": 0,
    "attack": 0,
    "defence": 1,
    "special_attack": 0,
    "special_defence": 1,
    "speed": 0
  },
  "height": 10,
  "weight": 1080,
  "aspects": [],
  "cannotDynamax": false
}