{
  "implemented": true,
  "name": "Incineroar",
  "nationalPokedexNumber": 727,
  "primaryType": "fire",
  "secondaryType": "dark",
  "abilities": [
    "blaze",
    "h:intimidate"
  ],
  "baseStats": {
    "hp": 95,
    "attack": 115,
    "defence": 90,
    "special_attack": 80,
    "special_defence": 90,
    "speed": 60
  },
  "catchRate": 45,
  "maleRatio": 0.875,
  "shoulderMountable": false,
  "baseExperienceYield": 265,
  "experienceGroup": "medium_slow",
  "eggCycles": 15,
  "eggGroups": [
    "field"
  ],
  "drops": {
    "amount": "1",
    "entries": [
      {
        "item": "cobblemon:charcoal_stick",
        "percentage": 20
      }
    ]
  },
  "moves": [
    "1:bulkup",
    "1:crosschop",
    "1:darkestlariat",
    "1:ember",
    "1:growl",
    "1:lick",
    "1:scratch",
    "1:throatchop",
    "9:roar",
    "11:leer",
    "12:furyswipes",
    "15:bite",
    "20:doublekick",
    "25:firefang",
    "30:scaryface",
    "32:swagger",
    "44:flamethrower",
    "51:thrash",
    "58:flareblitz",
    "60:outrage",
    "tm:acrobatics",
    "tm:assurance",
    "tm:attract",
    "tm:blazekick",
    "tm:bodyslam",
    "tm:brickbreak",
    "tm:brutalswing",
    "tm:bulkup",
    "tm:bulldoze",
    "tm:closecombat",
    "tm:confide",
    "tm:crunch",
    "tm:darkestlariat",
    "tm:darkpulse",
    "tm:doubleteam",
    "tm:drainpunch",
    "tm:earthquake",
    "tm:embargo",
    "tm:endure",
    "tm:facade",
    "tm:fireblast",
    "tm:firefang",
    "tm:firepunch",
    "tm:firespin",
    "tm:flamecharge",
    "tm:flamethrower",
    "tm:flareblitz",
    "tm:fling",
    "tm:focusblast",
    "tm:frustration",
    "tm:gigaimpact",
    "tm:heatcrash",
    "tm:heatwave",
    "tm:hiddenpower",
    "tm:hyperbeam",
    "tm:ironhead",
    "tm:leechlife",
    "tm:lowkick",
    "tm:lowsweep",
    "tm:megakick",
    "tm:megapunch",
    "tm:nastyplot",
    "tm:outrage",
    "tm:overheat",
    "tm:payday",
    "tm:protect",
    "tm:quash",
    "tm:rest",
    "tm:return",
    "tm:revenge",
    "tm:reversal",
    "tm:roar",
    "tm:round",
    "tm:scaryface",
    "tm:shadowclaw",
    "tm:sleeptalk",
    "tm:snarl",
    "tm:snore",
    "tm:stompingtantrum",
    "tm:substitute",
    "tm:sunnyday",
    "tm:superpower",
    "tm:swagger",
    "tm:swordsdance",
    "tm:taunt",
    "tm:throatchop",
    "tm:thunderpunch",
    "tm:torment",
    "tm:toxic",
    "tm:uturn",
    "tm:willowisp",
    "tm:workup",
    "tutor:bind",
    "tutor:blastburn",
    "tutor:burningjealousy",
    "tutor:covet",
    "tutor:darkestlariat",
    "tutor:drainpunch",
    "tutor:dualchop",
    "tutor:endeavor",
    "tutor:fakeout",
    "tutor:firepledge",
    "tutor:firepunch",
    "tutor:flareblitz",
    "tutor:focuspunch",
    "tutor:heatwave",
    "tutor:ironhead",
    "tutor:knockoff",
    "tutor:lashout",
    "tutor:lowkick",
    "tutor:outrage",
    "tutor:scorchingsands",
    "tutor:snatch",
    "tutor:snore",
    "tutor:stompingtantrum",
    "tutor:superpower",
    "tutor:throatchop",
    "tutor:thunderpunch",
    "tutor:uturn"
  ],
  "labels": [
    "gen7"
  ],
  "pokedex": [
    "cobblemon.species.incineroar.desc"
  ],
  "preEvolution": "torracat",
  "evolutions": [],
  "baseScale": 1.2,
  "hitbox": {
    "width": 1,
    "height": 2.1,
    "fixed": false
  },
  "baseFriendship": 50,
  "evYield": {
    "hp": 0,
    "attack": 3,
    "defence": 0,
    "special_attack": 0,
    "special_defence": 0,
    "speed": 0
  },
  "height": 18,
  "weight": 830,
  "aspects": [],
  "cannotDynamax": false
}