{
	"format_version": "1.12.0",
	"minecraft:geometry": [
		{
			"description": {
				"identifier": "geometry.mudsdale",
				"texture_width": 128,
				"texture_height": 128,
				"visible_bounds_width": 6,
				"visible_bounds_height": 4.5,
				"visible_bounds_offset": [0, 1.75, 0]
			},
			"bones": [
				{
					"name": "mudsdale",
					"pivot": [0, 0, 0]
				},
				{
					"name": "body",
					"parent": "mudsdale",
					"pivot": [0, 8, 0]
				},
				{
					"name": "torso",
					"parent": "body",
					"pivot": [0, 24.5, -1],
					"cubes": [
						{"origin": [-6, 18.5, -13.75], "size": [12, 12, 26], "uv": [52, 39]}
					]
				},
				{
					"name": "neck",
					"parent": "torso",
					"pivot": [0, 30.5, -6.25],
					"rotation": [35, 0, 0],
					"cubes": [
						{"origin": [-4, 26.5, -16.25], "size": [8, 10, 10], "inflate": 0.01, "uv": [30, 21]}
					]
				},
				{
					"name": "back_neck_braids",
					"parent": "neck",
					"pivot": [0, 32.8, -7.8],
					"rotation": [-22.5, 0, 0]
				},
				{
					"name": "back_neck_braid_left",
					"parent": "back_neck_braids",
					"pivot": [4, 33.8, -8.05],
					"rotation": [0, 0, -50],
					"cubes": [
						{"origin": [2, 31.8, -9.55], "size": [2, 2, 3], "inflate": 0.01, "uv": [17, 40]},
						{"origin": [1.5, 27.3, -10.05], "size": [3, 5, 4], "inflate": 0.01, "uv": [27, 41]}
					]
				},
				{
					"name": "back_neck_braid_left2",
					"parent": "back_neck_braid_left",
					"pivot": [4, 27.3, -8.05],
					"cubes": [
						{"origin": [2, 25.8, -9.55], "size": [2, 2, 3], "inflate": 0.01, "uv": [51, 41]},
						{"origin": [1.5, 22.3, -10.05], "size": [3, 4, 4], "inflate": 0.01, "uv": [66, 31]}
					]
				},
				{
					"name": "back_neck_braid_left3",
					"parent": "back_neck_braid_left2",
					"pivot": [4, 22.3, -8.05],
					"cubes": [
						{"origin": [2, 20.8, -9.55], "size": [2, 2, 3], "inflate": 0.01, "uv": [76, 21]},
						{"origin": [1, 15.8, -10.05], "size": [4, 5, 4], "inflate": 0.01, "uv": [112, 0]}
					]
				},
				{
					"name": "back_neck_braid_right",
					"parent": "back_neck_braids",
					"pivot": [-4, 33.8, -8.05],
					"rotation": [0, 0, 50],
					"cubes": [
						{"origin": [-4, 31.8, -9.55], "size": [2, 2, 3], "inflate": 0.01, "uv": [17, 45], "mirror": true},
						{"origin": [-4.5, 27.3, -10.05], "size": [3, 5, 4], "inflate": 0.01, "uv": [28, 50], "mirror": true}
					]
				},
				{
					"name": "back_neck_braid_right2",
					"parent": "back_neck_braid_right",
					"pivot": [-4, 27.3, -8.05],
					"cubes": [
						{"origin": [-4, 25.8, -9.55], "size": [2, 2, 3], "inflate": 0.01, "uv": [51, 46], "mirror": true},
						{"origin": [-4.5, 22.3, -10.05], "size": [3, 4, 4], "inflate": 0.01, "uv": [62, 39], "mirror": true}
					]
				},
				{
					"name": "back_neck_braid_right3",
					"parent": "back_neck_braid_right2",
					"pivot": [-4, 22.3, -8.05],
					"cubes": [
						{"origin": [-4, 20.8, -9.55], "size": [2, 2, 3], "inflate": 0.01, "uv": [76, 26], "mirror": true},
						{"origin": [-5, 15.8, -10.05], "size": [4, 5, 4], "inflate": 0.01, "uv": [112, 14], "mirror": true}
					]
				},
				{
					"name": "mane_neck",
					"parent": "neck",
					"pivot": [0, 36.5, -2.25],
					"rotation": [-5, 0, 0],
					"cubes": [
						{"origin": [-1.5, 31.5, -6.25], "size": [3, 5, 4], "uv": [16, 31]}
					]
				},
				{
					"name": "neck2",
					"parent": "neck",
					"pivot": [0, 36.5, -6.25],
					"rotation": [10, 0, 0],
					"cubes": [
						{"origin": [-4, 36.5, -15.25], "size": [8, 8, 9], "uv": [50, 4]}
					]
				},
				{
					"name": "front_neck_braids",
					"parent": "neck2",
					"pivot": [0, 39.3, -7.75],
					"rotation": [-47.5, 0, 0]
				},
				{
					"name": "front_neck_braid_left",
					"parent": "front_neck_braids",
					"pivot": [4, 39.3, -8.15],
					"rotation": [0, 0, -37.5],
					"cubes": [
						{"origin": [2, 37.3, -9.65], "size": [2, 2, 3], "inflate": 0.01, "uv": [10, 42]},
						{"origin": [1.5, 32.8, -10.15], "size": [3, 5, 4], "inflate": 0.01, "uv": [14, 52]}
					]
				},
				{
					"name": "front_neck_braid_left2",
					"parent": "front_neck_braid_left",
					"pivot": [4, 32.8, -8.15],
					"cubes": [
						{"origin": [2, 31.3, -9.65], "size": [2, 2, 3], "inflate": 0.01, "uv": [41, 41]},
						{"origin": [1.5, 27.8, -10.15], "size": [3, 4, 4], "inflate": 0.01, "uv": [57, 47]}
					]
				},
				{
					"name": "front_neck_braid_left3",
					"parent": "front_neck_braid_left2",
					"pivot": [4, 27.8, -8.15],
					"cubes": [
						{"origin": [2, 26.3, -9.65], "size": [2, 2, 3], "inflate": 0.01, "uv": [66, 21]},
						{"origin": [1, 21.3, -10.15], "size": [4, 5, 4], "inflate": 0.01, "uv": [91, 0]}
					]
				},
				{
					"name": "front_neck_braid_right",
					"parent": "front_neck_braids",
					"pivot": [-4, 39.3, -8.15],
					"rotation": [0, 0, 37.5],
					"cubes": [
						{"origin": [-4, 37.3, -9.65], "size": [2, 2, 3], "inflate": 0.01, "uv": [10, 47], "mirror": true},
						{"origin": [-4.5, 32.8, -10.15], "size": [3, 5, 4], "inflate": 0.01, "uv": [14, 61], "mirror": true}
					]
				},
				{
					"name": "front_neck_braid_right2",
					"parent": "front_neck_braid_right",
					"pivot": [-4, 32.8, -8.15],
					"cubes": [
						{"origin": [-4, 31.3, -9.65], "size": [2, 2, 3], "inflate": 0.01, "uv": [41, 46], "mirror": true},
						{"origin": [-4.5, 27.8, -10.15], "size": [3, 4, 4], "inflate": 0.01, "uv": [52, 55], "mirror": true}
					]
				},
				{
					"name": "front_neck_braid_right3",
					"parent": "front_neck_braid_right2",
					"pivot": [-4, 27.8, -8.15],
					"cubes": [
						{"origin": [-4, 26.3, -9.65], "size": [2, 2, 3], "inflate": 0.01, "uv": [66, 26], "mirror": true},
						{"origin": [-5, 21.3, -10.15], "size": [4, 5, 4], "inflate": 0.01, "uv": [100, 9], "mirror": true}
					]
				},
				{
					"name": "mane_neck2",
					"parent": "neck2",
					"pivot": [0, 36.2, -7.25],
					"rotation": [-10, 0, 0],
					"cubes": [
						{"origin": [-1.5, 36.2, -7.25], "size": [3, 9, 5], "inflate": 0.01, "uv": [0, 28]}
					]
				},
				{
					"name": "head",
					"parent": "neck2",
					"pivot": [0, 44.5, -6.25],
					"rotation": [-52.5, 0, 0],
					"cubes": [
						{"origin": [-4, 36.5, -14.25], "size": [8, 8, 8], "inflate": 0.01, "uv": [0, 0]},
						{"origin": [-0.5, 41.5, -14.27], "size": [1, 2, 0], "inflate": 0.01, "uv": [0, 16]}
					]
				},
				{
					"name": "eyes",
					"parent": "head",
					"pivot": [0, 44.5, -6.25]
				},
				{
					"name": "eye_left",
					"parent": "eyes",
					"pivot": [3.5, 41.25, -12.75],
					"cubes": [
						{"origin": [3.03, 39.75, -14.28], "size": [1, 3, 3], "uv": [68, 52]},
						{"origin": [4.02, 39.25, -14.27], "size": [0, 2, 3], "uv": [67, 44]},
						{"origin": [3.02, 39.25, -14.27], "size": [1, 1, 0], "uv": [76, 46]}
					]
				},
				{
					"name": "pupil_left",
					"parent": "eye_left",
					"pivot": [3.54, 41.25, -13.79],
					"cubes": [
						{"origin": [3.04, 40.25, -14.29], "size": [1, 2, 1], "uv": [73, 47]}
					]
				},
				{
					"name": "eyelid_half_left",
					"parent": "eye_left",
					"pivot": [3.54, 43, -12.79],
					"cubes": [
						{"origin": [3.04, 42, -14.29], "size": [1, 2, 3], "inflate": 0.01, "uv": [102, 57]}
					]
				},
				{
					"name": "eyelid_full_left",
					"parent": "eye_left",
					"pivot": [3.44, 41.25, -12.69],
					"cubes": [
						{"origin": [2.94, 39.25, -14.19], "size": [1, 4, 3], "inflate": 0.02, "uv": [119, 45]}
					]
				},
				{
					"name": "eye_right",
					"parent": "eyes",
					"pivot": [-3.5, 41.25, -12.75],
					"cubes": [
						{"origin": [-4.03, 39.75, -14.28], "size": [1, 3, 3], "uv": [68, 58], "mirror": true},
						{"origin": [-4.02, 39.25, -14.27], "size": [0, 2, 3], "uv": [67, 46], "mirror": true},
						{"origin": [-4.02, 39.25, -14.27], "size": [1, 1, 0], "uv": [76, 47], "mirror": true}
					]
				},
				{
					"name": "pupil_right",
					"parent": "eye_right",
					"pivot": [-3.54, 41.25, -13.79],
					"cubes": [
						{"origin": [-4.04, 40.25, -14.29], "size": [1, 2, 1], "uv": [73, 50], "mirror": true}
					]
				},
				{
					"name": "eyelid_half_right",
					"parent": "eye_right",
					"pivot": [-3.54, 43, -12.79],
					"cubes": [
						{"origin": [-4.04, 42, -14.29], "size": [1, 2, 3], "inflate": 0.01, "uv": [107, 59], "mirror": true}
					]
				},
				{
					"name": "eyelid_full_right",
					"parent": "eye_right",
					"pivot": [-3.44, 41.25, -12.69],
					"cubes": [
						{"origin": [-3.94, 39.25, -14.19], "size": [1, 4, 3], "inflate": 0.02, "uv": [119, 54], "mirror": true}
					]
				},
				{
					"name": "head_braids",
					"parent": "head",
					"pivot": [0, 42, -7.75]
				},
				{
					"name": "head_braid_left",
					"parent": "head_braids",
					"pivot": [4, 42, -7.75],
					"rotation": [0, 0, -27.5],
					"cubes": [
						{"origin": [2, 40, -9.25], "size": [2, 2, 3], "inflate": 0.01, "uv": [0, 42]},
						{"origin": [1.5, 35.5, -9.75], "size": [3, 5, 4], "inflate": 0.01, "uv": [0, 52]}
					]
				},
				{
					"name": "head_braid_left2",
					"parent": "head_braid_left",
					"pivot": [4, 35.5, -7.75],
					"cubes": [
						{"origin": [2, 34, -9.25], "size": [2, 2, 3], "inflate": 0.01, "uv": [25, 59]},
						{"origin": [1.5, 30.5, -9.75], "size": [3, 4, 4], "inflate": 0.01, "uv": [42, 51]}
					]
				},
				{
					"name": "head_braid_left3",
					"parent": "head_braid_left2",
					"pivot": [4, 30.5, -7.75],
					"cubes": [
						{"origin": [2, 29, -9.25], "size": [2, 2, 3], "inflate": 0.01, "uv": [56, 21]},
						{"origin": [1, 24, -9.75], "size": [4, 5, 4], "inflate": 0.01, "uv": [75, 0]}
					]
				},
				{
					"name": "head_braid_right",
					"parent": "head_braids",
					"pivot": [-4, 42, -7.75],
					"rotation": [0, 0, 27.5],
					"cubes": [
						{"origin": [-4, 40, -9.25], "size": [2, 2, 3], "inflate": 0.01, "uv": [0, 47], "mirror": true},
						{"origin": [-4.5, 35.5, -9.75], "size": [3, 5, 4], "inflate": 0.01, "uv": [0, 61], "mirror": true}
					]
				},
				{
					"name": "head_braid_right2",
					"parent": "head_braid_right",
					"pivot": [-4, 35.5, -7.75],
					"cubes": [
						{"origin": [-4, 34, -9.25], "size": [2, 2, 3], "inflate": 0.01, "uv": [28, 64], "mirror": true},
						{"origin": [-4.5, 30.5, -9.75], "size": [3, 4, 4], "inflate": 0.01, "uv": [35, 59], "mirror": true}
					]
				},
				{
					"name": "head_braid_right3",
					"parent": "head_braid_right2",
					"pivot": [-4, 30.5, -7.75],
					"cubes": [
						{"origin": [-4, 29, -9.25], "size": [2, 2, 3], "inflate": 0.01, "uv": [56, 26], "mirror": true},
						{"origin": [-5, 24, -9.75], "size": [4, 5, 4], "inflate": 0.01, "uv": [84, 9], "mirror": true}
					]
				},
				{
					"name": "mane_head",
					"parent": "head",
					"pivot": [0, 43.5, -10.25],
					"rotation": [-15, 0, 0],
					"cubes": [
						{"origin": [-1.5, 43.5, -9.25], "size": [3, 7, 5], "inflate": 0.02, "uv": [24, 19]}
					]
				},
				{
					"name": "mane_head2",
					"parent": "mane_head",
					"pivot": [0, 50.5, -9.25],
					"rotation": [15, 0, 0],
					"cubes": [
						{"origin": [-1.5, 44.5, -14.25], "size": [3, 6, 5], "inflate": 0.03, "uv": [32, 8]}
					]
				},
				{
					"name": "mane_head3",
					"parent": "mane_head2",
					"pivot": [0, 50.5, -14.25],
					"rotation": [35, 0, 0],
					"cubes": [
						{"origin": [-1.5, 44.5, -19.25], "size": [3, 6, 5], "inflate": 0.02, "uv": [43, 2]}
					]
				},
				{
					"name": "muzzle",
					"parent": "head",
					"pivot": [0, 42, -14.25],
					"rotation": [-22.5, 0, 0],
					"cubes": [
						{"origin": [-3, 36, -14.25], "size": [6, 6, 5], "uv": [0, 16]}
					]
				},
				{
					"name": "jaw",
					"parent": "muzzle",
					"pivot": [0, 36, -10.25],
					"cubes": [
						{"origin": [-2, 33, -10.25], "size": [4, 3, 1], "uv": [17, 16]}
					]
				},
				{
					"name": "muzzle2",
					"parent": "muzzle",
					"pivot": [0, 36, -14.25],
					"cubes": [
						{"origin": [-2.5, 33, -14.25], "size": [5, 3, 4], "inflate": 0.01, "uv": [30, 0]}
					]
				},
				{
					"name": "ears",
					"parent": "head",
					"pivot": [0, 44.6, -5.5]
				},
				{
					"name": "ear_left",
					"parent": "ears",
					"pivot": [1.95, 44.4, -9.5],
					"rotation": [15, -35, 10],
					"cubes": [
						{"origin": [0.95, 44.4, -9.5], "size": [4, 4, 0], "uv": [0, 0]}
					]
				},
				{
					"name": "ear_left2",
					"parent": "ear_left",
					"pivot": [0.95, 48.4, -9.5],
					"cubes": [
						{"origin": [0.95, 48.4, -9.5], "size": [3, 4, 0], "uv": [24, 0]}
					]
				},
				{
					"name": "ear_right",
					"parent": "ears",
					"pivot": [-1.95, 44.4, -9.5],
					"rotation": [15, 35, -10],
					"cubes": [
						{"origin": [-4.95, 44.4, -9.5], "size": [4, 4, 0], "uv": [0, 4], "mirror": true}
					]
				},
				{
					"name": "ear_right2",
					"parent": "ear_right",
					"pivot": [-0.95, 48.4, -9.5],
					"cubes": [
						{"origin": [-3.95, 48.4, -9.5], "size": [3, 4, 0], "uv": [24, 4], "mirror": true}
					]
				},
				{
					"name": "tail",
					"parent": "torso",
					"pivot": [0, 30.5, 12],
					"cubes": [
						{"origin": [-2, 27, 12], "size": [4, 4, 3], "uv": [60, 77]}
					]
				},
				{
					"name": "tail2",
					"parent": "tail",
					"pivot": [0, 29, 15],
					"cubes": [
						{"origin": [-1.5, 27.5, 14.5], "size": [3, 3, 1], "uv": [78, 77]},
						{"origin": [-2, 27, 15.5], "size": [4, 4, 3], "uv": [60, 84]}
					]
				},
				{
					"name": "tail3",
					"parent": "tail2",
					"pivot": [0, 29, 18.5],
					"cubes": [
						{"origin": [-1.5, 27.5, 18], "size": [3, 3, 1], "uv": [74, 87]},
						{"origin": [-2, 27, 19], "size": [4, 4, 3], "uv": [63, 91]}
					]
				},
				{
					"name": "tail4",
					"parent": "tail3",
					"pivot": [0, 29, 22],
					"cubes": [
						{"origin": [-1.5, 27.5, 21.5], "size": [3, 3, 1], "uv": [63, 98]},
						{"origin": [-3.5, 25.5, 22.5], "size": [7, 7, 4], "uv": [69, 98]},
						{"origin": [-4.5, 24.5, 26.5], "size": [9, 9, 7], "uv": [66, 109]}
					]
				},
				{
					"name": "legs",
					"parent": "body",
					"pivot": [0, 0.25, 0.25]
				},
				{
					"name": "leg_front_left",
					"parent": "legs",
					"pivot": [4.05, 23, -10.25],
					"cubes": [
						{"origin": [1.5, 14, -12.75], "size": [5, 11, 5], "inflate": 0.01, "uv": [86, 18]}
					]
				},
				{
					"name": "leg_front_left2",
					"parent": "leg_front_left",
					"pivot": [4.5, 14, -12.75],
					"cubes": [
						{"origin": [1.5, 10, -12.75], "size": [5, 4, 5], "uv": [102, 39]},
						{"origin": [1, 6.5, -13.25], "size": [6, 4, 6], "uv": [104, 77]},
						{"origin": [0.5, 3, -13.75], "size": [7, 4, 7], "uv": [100, 97]}
					]
				},
				{
					"name": "foot_front_left",
					"parent": "leg_front_left2",
					"pivot": [4, 3, -13.4],
					"cubes": [
						{"origin": [1, 0, -13.4], "size": [6, 4, 6], "inflate": 0.05, "uv": [80, 77]}
					]
				},
				{
					"name": "leg_front_right",
					"parent": "legs",
					"pivot": [-4.05, 23, -10.25],
					"cubes": [
						{"origin": [-6.5, 14, -12.75], "size": [5, 11, 5], "inflate": 0.01, "uv": [108, 23], "mirror": true}
					]
				},
				{
					"name": "leg_front_right2",
					"parent": "leg_front_right",
					"pivot": [-4.5, 14, -12.75],
					"cubes": [
						{"origin": [-6.5, 10, -12.75], "size": [5, 4, 5], "uv": [102, 48], "mirror": true},
						{"origin": [-7, 6.5, -13.25], "size": [6, 4, 6], "uv": [104, 87], "mirror": true},
						{"origin": [-7.5, 3, -13.75], "size": [7, 4, 7], "uv": [100, 108], "mirror": true}
					]
				},
				{
					"name": "foot_front_right",
					"parent": "leg_front_right2",
					"pivot": [-4, 3, -13.4],
					"cubes": [
						{"origin": [-7, 0, -13.4], "size": [6, 4, 6], "inflate": 0.05, "uv": [80, 87], "mirror": true}
					]
				},
				{
					"name": "leg_back_left",
					"parent": "legs",
					"pivot": [4.05, 24.5, 8.55],
					"cubes": [
						{"origin": [1, 14, 4.05], "size": [6, 14, 9], "inflate": 0.01, "uv": [0, 70]}
					]
				},
				{
					"name": "leg_back_left2",
					"parent": "leg_back_left",
					"pivot": [4.5, 15, 13.05],
					"cubes": [
						{"origin": [1.5, 11, 9.55], "size": [5, 4, 5], "uv": [0, 93]},
						{"origin": [1, 7, 9.05], "size": [6, 4, 6], "uv": [0, 111]},
						{"origin": [0.5, 3.5, 8.55], "size": [7, 4, 7], "uv": [23, 91]}
					]
				},
				{
					"name": "foot_back_left",
					"parent": "leg_back_left2",
					"pivot": [4, 3.5, 8.8],
					"cubes": [
						{"origin": [1, 0, 8.8], "size": [6, 4, 6], "inflate": 0.05, "uv": [45, 97]}
					]
				},
				{
					"name": "leg_back_right",
					"parent": "legs",
					"pivot": [-4.05, 24.5, 8.55],
					"cubes": [
						{"origin": [-7, 14, 4.05], "size": [6, 14, 9], "inflate": 0.01, "uv": [30, 68], "mirror": true}
					]
				},
				{
					"name": "leg_back_right2",
					"parent": "leg_back_right",
					"pivot": [-4.5, 15, 13.05],
					"cubes": [
						{"origin": [-6.5, 11, 9.55], "size": [5, 4, 5], "uv": [0, 102], "mirror": true},
						{"origin": [-7, 7, 9.05], "size": [6, 4, 6], "uv": [18, 115], "mirror": true},
						{"origin": [-7.5, 3.5, 8.55], "size": [7, 4, 7], "uv": [20, 102], "mirror": true}
					]
				},
				{
					"name": "foot_back_right",
					"parent": "leg_back_right2",
					"pivot": [-4, 3.5, 8.8],
					"cubes": [
						{"origin": [-7, 0, 8.8], "size": [6, 4, 6], "inflate": 0.05, "uv": [42, 107], "mirror": true}
					]
				}
			]
		}
	]
}