{
  "replace": false,
  "values": [
    "minecraft:dark_forest",
    "minecraft:mushroom_fields",
    {
      "id": "terralith:cave/fungal_caves",
      "required": false
    },
	{
      "id": "terralith:mirage_isles",
      "required": false
    }
  ]
}
