{
	"format_version": "1.12.0",
	"minecraft:geometry": [
		{
			"description": {
				"identifier": "geometry.exeggutor",
				"texture_width": 128,
				"texture_height": 64,
				"visible_bounds_width": 5,
				"visible_bounds_height": 3.5,
				"visible_bounds_offset": [0, 1.25, 0]
			},
			"bones": [
				{
					"name": "exeggutor",
					"pivot": [0, 0, 0]
				},
				{
					"name": "body",
					"parent": "exeggutor",
					"pivot": [0, 1, 0]
				},
				{
					"name": "torso",
					"parent": "body",
					"pivot": [0, 1, 0],
					"cubes": [
						{"origin": [-5.5, 7, -5.5], "size": [11, 16, 11], "uv": [0, 0]}
					]
				},
				{
					"name": "head",
					"parent": "torso",
					"pivot": [0, 21.5, -3.5],
					"rotation": [-7.5, 0, 0],
					"cubes": [
						{"origin": [-3.5, 18, -10.5], "size": [7, 8, 7], "uv": [0, 42]}
					]
				},
				{
					"name": "mouth_closed",
					"parent": "head",
					"pivot": [0, 18.25, -4.5],
					"cubes": [
						{"origin": [-2.5, 19.5, -10.41], "size": [5, 2, 0], "uv": [21, 42]}
					]
				},
				{
					"name": "mouth_open",
					"parent": "head",
					"pivot": [0, 20, -10.51],
					"cubes": [
						{"origin": [-3, 19.5, -10.51], "size": [6, 2, 0], "uv": [21, 30]}
					]
				},
				{
					"name": "eye_left",
					"parent": "head",
					"pivot": [2.01, 22.75, -10.01],
					"cubes": [
						{"origin": [0.51, 21.75, -10.51], "size": [3, 2, 1], "uv": [88, 19]}
					]
				},
				{
					"name": "eyelid_left",
					"parent": "eye_left",
					"pivot": [1.91, 22.75, -9.91],
					"cubes": [
						{"origin": [0.41, 21.75, -10.41], "size": [3, 2, 1], "inflate": 0.01, "uv": [72, 32]}
					]
				},
				{
					"name": "eye_right",
					"parent": "head",
					"pivot": [-2.01, 22.75, -10.01],
					"cubes": [
						{"origin": [-3.51, 21.75, -10.51], "size": [3, 2, 1], "uv": [54, 42]}
					]
				},
				{
					"name": "eyelid_right",
					"parent": "eye_right",
					"pivot": [-1.91, 22.75, -9.91],
					"cubes": [
						{"origin": [-3.41, 21.75, -10.41], "size": [3, 2, 1], "inflate": 0.01, "uv": [51, 3]}
					]
				},
				{
					"name": "head2",
					"parent": "torso",
					"pivot": [4, 21.5, -2],
					"rotation": [-7.5, -60, 0],
					"cubes": [
						{"origin": [0.5, 18, -9], "size": [7, 8, 7], "uv": [28, 27]}
					]
				},
				{
					"name": "mouth_closed2",
					"parent": "head2",
					"pivot": [4, 18.25, -2.9],
					"cubes": [
						{"origin": [1.5, 20, -8.91], "size": [5, 2, 0], "uv": [33, 9]}
					]
				},
				{
					"name": "mouth_open2",
					"parent": "head2",
					"pivot": [4, 20.75, -9.01],
					"cubes": [
						{"origin": [2, 20, -9.01], "size": [4, 2, 0], "uv": [89, 23]}
					]
				},
				{
					"name": "eye_left2",
					"parent": "head2",
					"pivot": [6.01, 22.5, -8.51],
					"cubes": [
						{"origin": [4.51, 22.5, -9.01], "size": [3, 1, 1], "uv": [107, 49]}
					]
				},
				{
					"name": "eyelid_left2",
					"parent": "eye_left2",
					"pivot": [5.91, 22.5, -8.41],
					"cubes": [
						{"origin": [4.41, 22.5, -8.91], "size": [3, 1, 1], "inflate": 0.01, "uv": [96, 19]}
					]
				},
				{
					"name": "eye_right2",
					"parent": "head2",
					"pivot": [1.99, 22.5, -8.51],
					"cubes": [
						{"origin": [0.49, 22.5, -9.01], "size": [3, 1, 1], "uv": [64, 22]}
					]
				},
				{
					"name": "eyelid_right2",
					"parent": "eye_right2",
					"pivot": [2.09, 22.5, -8.41],
					"cubes": [
						{"origin": [0.59, 22.5, -8.91], "size": [3, 1, 1], "inflate": 0.01, "uv": [44, 22]}
					]
				},
				{
					"name": "head3",
					"parent": "torso",
					"pivot": [-4, 21.5, -2],
					"rotation": [-7.5, 60, 0],
					"cubes": [
						{"origin": [-7.5, 18, -9], "size": [7, 8, 7], "uv": [0, 27]}
					]
				},
				{
					"name": "mouth_closed3",
					"parent": "head3",
					"pivot": [-4, 18.25, -3],
					"cubes": [
						{"origin": [-6.5, 19.5, -8.91], "size": [5, 2, 0], "uv": [21, 32]}
					]
				},
				{
					"name": "mouth_open3",
					"parent": "head3",
					"pivot": [-4, 20, -9.01],
					"cubes": [
						{"origin": [-7, 18.5, -9.01], "size": [6, 3, 0], "uv": [21, 27]}
					]
				},
				{
					"name": "eye_left3",
					"parent": "head3",
					"pivot": [-1.99, 22.75, -8.51],
					"cubes": [
						{"origin": [-3.49, 21.75, -9.01], "size": [3, 2, 1], "uv": [51, 0]}
					]
				},
				{
					"name": "eyelid_left3",
					"parent": "eye_left3",
					"pivot": [-2.09, 22.75, -8.41],
					"cubes": [
						{"origin": [-3.59, 21.75, -8.91], "size": [3, 2, 1], "inflate": 0.01, "uv": [46, 42]}
					]
				},
				{
					"name": "eye_right3",
					"parent": "head3",
					"pivot": [-6.01, 22.75, -8.51],
					"cubes": [
						{"origin": [-7.51, 21.75, -9.01], "size": [3, 2, 1], "uv": [21, 44]}
					]
				},
				{
					"name": "eyelid_right3",
					"parent": "eye_right3",
					"pivot": [-5.91, 22.85, -8.51],
					"cubes": [
						{"origin": [-7.41, 21.75, -8.91], "size": [3, 2, 1], "inflate": 0.01, "uv": [44, 19]}
					]
				},
				{
					"name": "leaves_inner",
					"parent": "torso",
					"pivot": [0, 22, 1.5],
					"rotation": [0, 180, 0]
				},
				{
					"name": "leaf_set11",
					"parent": "leaves_inner",
					"pivot": [0, 23, 1.5]
				},
				{
					"name": "leaf31",
					"parent": "leaf_set11",
					"pivot": [0, 23, 0.5],
					"rotation": [30, 0, 0],
					"cubes": [
						{"origin": [-2, 23, 0.5], "size": [4, 8, 0], "uv": [67, 0]}
					]
				},
				{
					"name": "leaf32",
					"parent": "leaf31",
					"pivot": [0, 31, 0.5],
					"rotation": [42.5, 0, 0],
					"cubes": [
						{"origin": [-2, 31, 0.5], "size": [4, 11, 0], "uv": [93, 29]}
					]
				},
				{
					"name": "leaf33",
					"parent": "leaf32",
					"pivot": [0, 42, 0.5],
					"rotation": [42.5, 0, 0],
					"cubes": [
						{"origin": [-1.5, 42, 0.5], "size": [3, 8, 0], "uv": [72, 24]}
					]
				},
				{
					"name": "leaf_set10",
					"parent": "leaves_inner",
					"pivot": [0, 23, 1.5],
					"rotation": [0, 144, 0]
				},
				{
					"name": "leaf28",
					"parent": "leaf_set10",
					"pivot": [0, 23, 0.5],
					"rotation": [22.5, 0, 0],
					"cubes": [
						{"origin": [-2, 23, 0.5], "size": [4, 8, 0], "uv": [64, 28]}
					]
				},
				{
					"name": "leaf29",
					"parent": "leaf28",
					"pivot": [0, 31, 0.5],
					"rotation": [42.5, 0, 0],
					"cubes": [
						{"origin": [-2, 31, 0.5], "size": [4, 11, 0], "uv": [0, 0]}
					]
				},
				{
					"name": "leaf30",
					"parent": "leaf29",
					"pivot": [0, 42, 0.5],
					"rotation": [42.5, 0, 0],
					"cubes": [
						{"origin": [-1.5, 42, 0.5], "size": [3, 8, 0], "uv": [120, 31]}
					]
				},
				{
					"name": "leaf_set12",
					"parent": "leaves_inner",
					"pivot": [0, 23, 1.5],
					"rotation": [0, -72, 0]
				},
				{
					"name": "leaf34",
					"parent": "leaf_set12",
					"pivot": [0, 23, 0.5],
					"rotation": [25, 0, 0],
					"cubes": [
						{"origin": [-2, 23, 0.5], "size": [4, 8, 0], "uv": [101, 37]}
					]
				},
				{
					"name": "leaf35",
					"parent": "leaf34",
					"pivot": [0, 31, 0.5],
					"rotation": [42.5, 0, 0],
					"cubes": [
						{"origin": [-2, 31, 0.5], "size": [4, 11, 0], "uv": [85, 29]}
					]
				},
				{
					"name": "leaf36",
					"parent": "leaf35",
					"pivot": [0, 42, 0.5],
					"rotation": [42.5, 0, 0],
					"cubes": [
						{"origin": [-1.5, 42, 0.5], "size": [3, 8, 0], "uv": [72, 16]}
					]
				},
				{
					"name": "leaf_set13",
					"parent": "leaves_inner",
					"pivot": [0, 23, 1.5],
					"rotation": [0, -144, 0]
				},
				{
					"name": "leaf37",
					"parent": "leaf_set13",
					"pivot": [0, 23, 0.5],
					"rotation": [22.5, 0, 0],
					"cubes": [
						{"origin": [-2, 23, 0.5], "size": [4, 8, 0], "uv": [101, 29]}
					]
				},
				{
					"name": "leaf38",
					"parent": "leaf37",
					"pivot": [0, 31, 0.5],
					"rotation": [42.5, 0, 0],
					"cubes": [
						{"origin": [-2, 31, 0.5], "size": [4, 11, 0], "uv": [56, 28]}
					]
				},
				{
					"name": "leaf39",
					"parent": "leaf38",
					"pivot": [0, 42, 0.5],
					"rotation": [42.5, 0, 0],
					"cubes": [
						{"origin": [-1.5, 42, 0.5], "size": [3, 8, 0], "uv": [72, 8]}
					]
				},
				{
					"name": "leaf_set9",
					"parent": "leaves_inner",
					"pivot": [0, 23, 1.5],
					"rotation": [0, 72, 0]
				},
				{
					"name": "leaf25",
					"parent": "leaf_set9",
					"pivot": [0, 23, 0.5],
					"rotation": [25, 0, 0],
					"cubes": [
						{"origin": [-2, 23, 0.5], "size": [4, 8, 0], "uv": [85, 40]}
					]
				},
				{
					"name": "leaf26",
					"parent": "leaf25",
					"pivot": [0, 31, 0.5],
					"rotation": [42.5, 0, 0],
					"cubes": [
						{"origin": [-2, 31, 0.5], "size": [4, 11, 0], "uv": [82, 0]}
					]
				},
				{
					"name": "leaf27",
					"parent": "leaf26",
					"pivot": [0, 42, 0.5],
					"rotation": [42.5, 0, 0],
					"cubes": [
						{"origin": [-1.5, 42, 0.5], "size": [3, 8, 0], "uv": [72, 52]}
					]
				},
				{
					"name": "leaves_outer",
					"parent": "torso",
					"pivot": [0, 1, 0]
				},
				{
					"name": "leaf_set",
					"parent": "leaves_outer",
					"pivot": [0, 23, 1.5]
				},
				{
					"name": "leaf",
					"parent": "leaf_set",
					"pivot": [0, 23, -1.5],
					"rotation": [22.5, 0, 0],
					"cubes": [
						{"origin": [-2, 23, -1.5], "size": [4, 8, 0], "uv": [120, 11]}
					]
				},
				{
					"name": "leaf2",
					"parent": "leaf",
					"pivot": [0, 31, -1.5],
					"rotation": [55, 0, 0],
					"cubes": [
						{"origin": [-2, 31, -1.5], "size": [4, 11, 0], "uv": [64, 11]}
					]
				},
				{
					"name": "leaf3",
					"parent": "leaf2",
					"pivot": [0, 42, -1.5],
					"rotation": [42.5, 0, 0],
					"cubes": [
						{"origin": [-1.5, 42, -1.5], "size": [3, 8, 0], "uv": [82, 19]}
					]
				},
				{
					"name": "leaf_set2",
					"parent": "leaves_outer",
					"pivot": [0, 23, 1.5],
					"rotation": [0, 45, 0]
				},
				{
					"name": "leaf4",
					"parent": "leaf_set2",
					"pivot": [0, 23, -1.5],
					"rotation": [30, 0, 0],
					"cubes": [
						{"origin": [-2, 23, -1.5], "size": [4, 8, 0], "uv": [106, 14]}
					]
				},
				{
					"name": "leaf5",
					"parent": "leaf4",
					"pivot": [0, 31, -1.5],
					"rotation": [55, 0, 0],
					"cubes": [
						{"origin": [-2, 31, -1.5], "size": [4, 11, 0], "uv": [62, 39]}
					]
				},
				{
					"name": "leaf6",
					"parent": "leaf5",
					"pivot": [0, 42, -1.5],
					"rotation": [42.5, 0, 0],
					"cubes": [
						{"origin": [-1.5, 42, -1.5], "size": [3, 8, 0], "uv": [95, 48]}
					]
				},
				{
					"name": "leaf_set3",
					"parent": "leaves_outer",
					"pivot": [0, 23, 1.5],
					"rotation": [0, 90, 0]
				},
				{
					"name": "leaf7",
					"parent": "leaf_set3",
					"pivot": [0, 23, -1.5],
					"rotation": [37.5, 0, 0],
					"cubes": [
						{"origin": [-2, 23, -1.5], "size": [4, 8, 0], "uv": [90, 11]}
					]
				},
				{
					"name": "leaf8",
					"parent": "leaf7",
					"pivot": [0, 31, -1.5],
					"rotation": [55, 0, 0],
					"cubes": [
						{"origin": [-2, 31, -1.5], "size": [4, 11, 0], "uv": [120, 20]}
					]
				},
				{
					"name": "leaf9",
					"parent": "leaf8",
					"pivot": [0, 42, -1.5],
					"rotation": [42.5, 0, 0],
					"cubes": [
						{"origin": [-1.5, 42, -1.5], "size": [3, 8, 0], "uv": [89, 48]}
					]
				},
				{
					"name": "leaf_set4",
					"parent": "leaves_outer",
					"pivot": [0, 23, 1.5],
					"rotation": [0, 135, 0]
				},
				{
					"name": "leaf10",
					"parent": "leaf_set4",
					"pivot": [0, 23, -1.5],
					"rotation": [35, 0, 0],
					"cubes": [
						{"origin": [-2, 23, -1.5], "size": [4, 8, 0], "uv": [70, 44]}
					]
				},
				{
					"name": "leaf11",
					"parent": "leaf10",
					"pivot": [0, 31, -1.5],
					"rotation": [55, 0, 0],
					"cubes": [
						{"origin": [-2, 31, -1.5], "size": [4, 11, 0], "uv": [120, 0]}
					]
				},
				{
					"name": "leaf12",
					"parent": "leaf11",
					"pivot": [0, 42, -1.5],
					"rotation": [42.5, 0, 0],
					"cubes": [
						{"origin": [-1.5, 42, -1.5], "size": [3, 8, 0], "uv": [83, 48]}
					]
				},
				{
					"name": "leaf_set5",
					"parent": "leaves_outer",
					"pivot": [0, 23, 1.5],
					"rotation": [0, 180, 0]
				},
				{
					"name": "leaf13",
					"parent": "leaf_set5",
					"pivot": [0, 23, -1.5],
					"rotation": [40, 0, 0],
					"cubes": [
						{"origin": [-2, 23, -1.5], "size": [4, 8, 0], "uv": [70, 36]}
					]
				},
				{
					"name": "leaf14",
					"parent": "leaf13",
					"pivot": [0, 31, -1.5],
					"rotation": [55, 0, 0],
					"cubes": [
						{"origin": [-2, 31, -1.5], "size": [4, 11, 0], "uv": [106, 3]}
					]
				},
				{
					"name": "leaf15",
					"parent": "leaf14",
					"pivot": [0, 42, -1.5],
					"rotation": [42.5, 0, 0],
					"cubes": [
						{"origin": [-1.5, 42, -1.5], "size": [3, 8, 0], "uv": [75, 0]}
					]
				},
				{
					"name": "leaf_set6",
					"parent": "leaves_outer",
					"pivot": [0, 23, 1.5],
					"rotation": [0, -135, 0]
				},
				{
					"name": "leaf16",
					"parent": "leaf_set6",
					"pivot": [0, 23, -1.5],
					"rotation": [35, 0, 0],
					"cubes": [
						{"origin": [-2, 23, -1.5], "size": [4, 8, 0], "uv": [98, 11]}
					]
				},
				{
					"name": "leaf17",
					"parent": "leaf16",
					"pivot": [0, 31, -1.5],
					"rotation": [55, 0, 0],
					"cubes": [
						{"origin": [-2, 31, -1.5], "size": [4, 11, 0], "uv": [59, 0]}
					]
				},
				{
					"name": "leaf18",
					"parent": "leaf17",
					"pivot": [0, 42, -1.5],
					"rotation": [42.5, 0, 0],
					"cubes": [
						{"origin": [-1.5, 42, -1.5], "size": [3, 8, 0], "uv": [109, 41]}
					]
				},
				{
					"name": "leaf_set7",
					"parent": "leaves_outer",
					"pivot": [0, 23, 1.5],
					"rotation": [0, -90, 0]
				},
				{
					"name": "leaf19",
					"parent": "leaf_set7",
					"pivot": [0, 23, -1.5],
					"rotation": [37.5, 0, 0],
					"cubes": [
						{"origin": [-2, 23, -1.5], "size": [4, 8, 0], "uv": [82, 11]}
					]
				},
				{
					"name": "leaf20",
					"parent": "leaf19",
					"pivot": [0, 31, -1.5],
					"rotation": [55, 0, 0],
					"cubes": [
						{"origin": [-2, 31, -1.5], "size": [4, 11, 0], "uv": [98, 0]}
					]
				},
				{
					"name": "leaf21",
					"parent": "leaf20",
					"pivot": [0, 42, -1.5],
					"rotation": [42.5, 0, 0],
					"cubes": [
						{"origin": [-1.5, 42, -1.5], "size": [3, 8, 0], "uv": [101, 45]}
					]
				},
				{
					"name": "leaf_set8",
					"parent": "leaves_outer",
					"pivot": [0, 23, 1.5],
					"rotation": [0, -45, 0]
				},
				{
					"name": "leaf22",
					"parent": "leaf_set8",
					"pivot": [0, 23, -1.5],
					"rotation": [30, 0, 0],
					"cubes": [
						{"origin": [-2, 23, -1.5], "size": [4, 8, 0], "uv": [93, 40]}
					]
				},
				{
					"name": "leaf23",
					"parent": "leaf22",
					"pivot": [0, 31, -1.5],
					"rotation": [55, 0, 0],
					"cubes": [
						{"origin": [-2, 31, -1.5], "size": [4, 11, 0], "uv": [90, 0]}
					]
				},
				{
					"name": "leaf24",
					"parent": "leaf23",
					"pivot": [0, 42, -1.5],
					"rotation": [42.5, 0, 0],
					"cubes": [
						{"origin": [-1.5, 42, -1.5], "size": [3, 8, 0], "uv": [109, 33]}
					]
				},
				{
					"name": "leg_left",
					"parent": "body",
					"pivot": [4.5, 8.5, 0],
					"cubes": [
						{"origin": [2, 6, -2.5], "size": [5, 5, 5], "inflate": 0.001, "uv": [47, 46]}
					]
				},
				{
					"name": "leg_left2",
					"parent": "leg_left",
					"pivot": [4.5, 6, -2.5],
					"cubes": [
						{"origin": [2, 2, -2.5], "size": [5, 4, 5], "uv": [28, 51]}
					]
				},
				{
					"name": "foot_left",
					"parent": "leg_left2",
					"pivot": [4.5, 2.25, 0.5],
					"cubes": [
						{"origin": [1.5, 0, -3.25], "size": [6, 3, 6], "uv": [28, 42]},
						{"origin": [3.25, 0, -5.25], "size": [0, 2, 2], "uv": [31, 30]},
						{"origin": [5.75, 0, -5.25], "size": [0, 2, 2], "uv": [0, 29]}
					]
				},
				{
					"name": "leg_right",
					"parent": "body",
					"pivot": [-4.5, 8.5, 0],
					"cubes": [
						{"origin": [-7, 6, -2.5], "size": [5, 5, 5], "inflate": 0.001, "uv": [44, 9]}
					]
				},
				{
					"name": "leg_right2",
					"parent": "leg_right",
					"pivot": [-4.5, 6, -2.5],
					"cubes": [
						{"origin": [-7, 2, -2.5], "size": [5, 4, 5], "uv": [49, 19]}
					]
				},
				{
					"name": "foot_right",
					"parent": "leg_right2",
					"pivot": [-4.5, 2.25, 0.5],
					"cubes": [
						{"origin": [-7.5, 0, -3.25], "size": [6, 3, 6], "uv": [33, 0]},
						{"origin": [-3.25, 0, -5.25], "size": [0, 2, 2], "uv": [0, 27]},
						{"origin": [-5.75, 0, -5.25], "size": [0, 2, 2], "uv": [0, 25]}
					]
				}
			]
		}
	]
}