{
	"format_version": "1.12.0",
	"minecraft:geometry": [
		{
			"description": {
				"identifier": "geometry.gigalith",
				"texture_width": 128,
				"texture_height": 128,
				"visible_bounds_width": 4,
				"visible_bounds_height": 4.5,
				"visible_bounds_offset": [0, 1.75, 0]
			},
			"bones": [
				{
					"name": "gigalith",
					"pivot": [0, 12.5, 0]
				},
				{
					"name": "body",
					"parent": "gigalith",
					"pivot": [0, 25.025, 0.25]
				},
				{
					"name": "torso",
					"parent": "body",
					"pivot": [0, 19.025, 3.25],
					"cubes": [
						{"origin": [-4.5, 25.025, -4.25], "size": [9, 6, 9], "pivot": [0, 25.025, 0.25], "rotation": [0, -45, 0], "uv": [0, 31]},
						{"origin": [-6, 19.025, -5.75], "size": [12, 6, 12], "pivot": [0, 25.025, 0.25], "rotation": [0, -45, 0], "uv": [0, 0]},
						{"origin": [-5, 16.025, -4.75], "size": [10, 3, 10], "pivot": [0, 25.025, 0.25], "rotation": [0, -45, 0], "uv": [0, 18]}
					]
				},
				{
					"name": "spike_front",
					"parent": "torso",
					"pivot": [0, 23.025, -6.75],
					"rotation": [50, 0, 0],
					"cubes": [
						{"origin": [-0.5, 21.525, -9.75], "size": [1, 8, 7], "uv": [32, 78]},
						{"origin": [0, 29.525, -8.75], "size": [0, 8, 5], "uv": [0, 77]}
					]
				},
				{
					"name": "spike_back_top",
					"parent": "torso",
					"pivot": [0, 29.025, 3.75],
					"rotation": [-25, 0, 0],
					"cubes": [
						{"origin": [-0.5, 27.525, 0.75], "size": [1, 9, 6], "uv": [48, 78]},
						{"origin": [0, 36.525, 0.75], "size": [0, 9, 5], "uv": [0, 13]}
					]
				},
				{
					"name": "spike_back_bottom",
					"parent": "torso",
					"pivot": [0, 22.025, 6.75],
					"rotation": [-45, 0, 0],
					"cubes": [
						{"origin": [-0.5, 20.525, 4.25], "size": [1, 7, 5], "uv": [0, 0]},
						{"origin": [0, 27.525, 4.25], "size": [0, 7, 4], "uv": [0, 27]}
					]
				},
				{
					"name": "neck",
					"parent": "torso",
					"pivot": [0, 31.025, -5.75],
					"rotation": [35, 0, 0],
					"cubes": [
						{"origin": [0, 24.025, -5.75], "size": [7, 7, 7], "pivot": [0, 31.025, -5.75], "rotation": [0, -45, 0], "uv": [51, 53]}
					]
				},
				{
					"name": "head",
					"parent": "torso",
					"pivot": [0, 35.025, 0.75],
					"cubes": [
						{"origin": [-3, 35.025, -3.25], "size": [6, 2, 5], "uv": [65, 0]},
						{"origin": [-2, 36.025, -6.75], "size": [4, 1, 4], "uv": [30, 73]}
					]
				},
				{
					"name": "fang_left",
					"parent": "head",
					"pivot": [-1.5, 37.525, -5.25],
					"rotation": [60, 30, 0],
					"cubes": [
						{"origin": [-1.5, 36.525, -8.25], "size": [0, 2, 3], "uv": [27, 35]}
					]
				},
				{
					"name": "fang_right",
					"parent": "head",
					"pivot": [1.5, 37.525, -5.25],
					"rotation": [60, -30, 0],
					"cubes": [
						{"origin": [1.5, 36.525, -8.25], "size": [0, 2, 3], "uv": [0, 35]}
					]
				},
				{
					"name": "head_upper",
					"parent": "head",
					"pivot": [0, 37.025, -0.25],
					"cubes": [
						{"origin": [-3.5, 37.025, -3.75], "size": [7, 5, 6], "uv": [46, 67]},
						{"origin": [-2, 37.025, -7.75], "size": [4, 4, 4], "uv": [72, 52]},
						{"origin": [0, 35.525, -9.75], "size": [0, 14, 10], "uv": [38, 36]}
					]
				},
				{
					"name": "eye_left",
					"parent": "head_upper",
					"pivot": [-2, 39.525, -4.75],
					"cubes": [
						{"origin": [-2.015, 39.025, -5.25], "size": [0, 1, 1], "uv": [0, 0]}
					]
				},
				{
					"name": "eye_right",
					"parent": "head_upper",
					"pivot": [2, 39.525, -4.75],
					"cubes": [
						{"origin": [2.015, 39.025, -5.25], "size": [0, 1, 1], "uv": [0, 1]}
					]
				},
				{
					"name": "horn_left",
					"parent": "head_upper",
					"pivot": [-3.5, 39.025, -0.85],
					"rotation": [-10, 0, 0],
					"cubes": [
						{"origin": [-4.5, 37.525, -2.35], "size": [1, 3, 3], "uv": [30, 22]},
						{"origin": [-4, 40.525, -2.35], "size": [0, 4, 3], "uv": [0, 48]},
						{"origin": [-4, 34.525, -2.35], "size": [0, 3, 3], "uv": [36, 3]}
					]
				},
				{
					"name": "horn_right",
					"parent": "head_upper",
					"pivot": [3.5, 39.025, -0.85],
					"rotation": [-10, 0, 0],
					"cubes": [
						{"origin": [3.5, 37.525, -2.35], "size": [1, 3, 3], "uv": [36, 0]},
						{"origin": [4, 40.525, -2.35], "size": [0, 4, 3], "uv": [29, 48]},
						{"origin": [4, 34.525, -2.35], "size": [0, 3, 3], "uv": [0, 55]}
					]
				},
				{
					"name": "leg_front_left",
					"parent": "torso",
					"pivot": [3, 19.025, -2.75],
					"cubes": [
						{"origin": [1.5, 17.525, -10.75], "size": [3, 3, 9], "uv": [15, 73]}
					]
				},
				{
					"name": "leg_front2_left",
					"parent": "leg_front_left",
					"pivot": [3, 19.025, -9.75],
					"cubes": [
						{"origin": [-2, 12.525, -17.75], "size": [10, 3, 9], "inflate": 0.01, "uv": [0, 46]}
					]
				},
				{
					"name": "leg_front3_left",
					"parent": "leg_front2_left",
					"pivot": [3, 14.525, -13.75],
					"rotation": [-10, 0, 0],
					"cubes": [
						{"origin": [-0.5, 14.525, -16.25], "size": [7, 6, 6], "uv": [65, 28]}
					]
				},
				{
					"name": "leg_front4_left",
					"parent": "leg_front3_left",
					"pivot": [3, 20.525, -14.25],
					"cubes": [
						{"origin": [1, 20.525, -14.25], "size": [4, 5, 3], "pivot": [3, 20.525, -14.25], "rotation": [-10, 0, 0], "uv": [86, 57]}
					]
				},
				{
					"name": "legspike_front_left",
					"parent": "leg_front3_left",
					"pivot": [3, 20.525, -14.25],
					"rotation": [-45, 0, 0],
					"cubes": [
						{"origin": [2.5, 18.025, -20.25], "size": [1, 5, 6], "uv": [81, 75]},
						{"origin": [3, 19.025, -27.25], "size": [0, 4, 7], "uv": [48, 5]}
					]
				},
				{
					"name": "toe_front_left",
					"parent": "leg_front2_left",
					"pivot": [3, 13.525, -17.75],
					"cubes": [
						{"origin": [1.5, 12.525, -19.25], "size": [3, 2, 3], "pivot": [3, 13.525, -17.75], "rotation": [0, -45, 0], "uv": [82, 0]}
					]
				},
				{
					"name": "toe_front_left2",
					"parent": "toe_front_left",
					"pivot": [3, 14.525, -19.75],
					"rotation": [-10, 0, 0],
					"cubes": [
						{"origin": [3, 14.525, -19.75], "size": [2, 3, 2], "pivot": [3, 14.525, -19.75], "rotation": [0, -45, 0], "uv": [60, 24]}
					]
				},
				{
					"name": "leg_front_right",
					"parent": "torso",
					"pivot": [-3, 19.025, -2.75],
					"cubes": [
						{"origin": [-4.5, 17.525, -10.75], "size": [3, 3, 9], "uv": [0, 70]}
					]
				},
				{
					"name": "leg_front2_right",
					"parent": "leg_front_right",
					"pivot": [-3, 19.025, -9.75],
					"cubes": [
						{"origin": [-8, 12.525, -17.75], "size": [10, 3, 9], "inflate": 0.01, "uv": [36, 34]}
					]
				},
				{
					"name": "leg_front3_right",
					"parent": "leg_front2_right",
					"pivot": [-3, 14.525, -13.75],
					"rotation": [-10, 0, 0],
					"cubes": [
						{"origin": [-6.5, 14.525, -16.25], "size": [7, 6, 6], "uv": [26, 61]}
					]
				},
				{
					"name": "leg_front4_right",
					"parent": "leg_front3_right",
					"pivot": [-3, 20.525, -14.25],
					"cubes": [
						{"origin": [-5, 20.525, -14.25], "size": [4, 5, 3], "pivot": [-3, 20.525, -14.25], "rotation": [-10, 0, 0], "uv": [85, 21]}
					]
				},
				{
					"name": "legspike_front_right",
					"parent": "leg_front3_right",
					"pivot": [-3, 20.525, -14.25],
					"rotation": [-45, 0, 0],
					"cubes": [
						{"origin": [-3.5, 18.025, -20.25], "size": [1, 5, 6], "uv": [62, 81]},
						{"origin": [-3, 19.025, -27.25], "size": [0, 4, 7], "uv": [44, 11]}
					]
				},
				{
					"name": "toe_front_right",
					"parent": "leg_front2_right",
					"pivot": [-3, 13.525, -17.75],
					"cubes": [
						{"origin": [-4.5, 12.525, -19.25], "size": [3, 2, 3], "pivot": [-3, 13.525, -17.75], "rotation": [0, 45, 0], "uv": [41, 78]}
					]
				},
				{
					"name": "toe_front_right2",
					"parent": "toe_front_right",
					"pivot": [-3, 14.525, -19.75],
					"rotation": [-10, 0, 0],
					"cubes": [
						{"origin": [-5, 14.525, -19.75], "size": [2, 3, 2], "pivot": [-3, 14.525, -19.75], "rotation": [0, 45, 0], "uv": [29, 46]}
					]
				},
				{
					"name": "leg_back_left",
					"parent": "body",
					"pivot": [3, 19.025, 3.25],
					"cubes": [
						{"origin": [1.5, 17.525, 2.25], "size": [3, 3, 9], "uv": [63, 69]}
					]
				},
				{
					"name": "leg_back2_left",
					"parent": "leg_back_left",
					"pivot": [3, 19.025, 10.25],
					"cubes": [
						{"origin": [-2, 12.525, 9.25], "size": [10, 3, 9], "inflate": 0.01, "uv": [36, 0]}
					]
				},
				{
					"name": "leg_back3_left",
					"parent": "leg_back2_left",
					"pivot": [3, 14.525, 14.25],
					"rotation": [10, 0, 0],
					"cubes": [
						{"origin": [-0.5, 14.525, 10.75], "size": [7, 6, 6], "uv": [60, 12]}
					]
				},
				{
					"name": "leg_back4_left",
					"parent": "leg_back3_left",
					"pivot": [3, 20.525, 14.75],
					"cubes": [
						{"origin": [1, 20.525, 11.75], "size": [4, 5, 3], "pivot": [3, 20.525, 14.75], "rotation": [10, 0, 0], "uv": [10, 85]}
					]
				},
				{
					"name": "legspike_back_left",
					"parent": "leg_back3_left",
					"pivot": [3, 20.525, 14.75],
					"rotation": [45, 0, 0],
					"cubes": [
						{"origin": [2.5, 18.025, 14.75], "size": [1, 5, 6], "uv": [80, 7]},
						{"origin": [3, 19.025, 20.75], "size": [0, 4, 7], "uv": [30, 11]}
					]
				},
				{
					"name": "toe_back_left",
					"parent": "leg_back2_left",
					"pivot": [3, 13.525, 18.25],
					"cubes": [
						{"origin": [1.5, 12.525, 16.75], "size": [3, 2, 3], "pivot": [3, 13.525, 18.25], "rotation": [0, 45, 0], "uv": [74, 7]}
					]
				},
				{
					"name": "toe_back_left2",
					"parent": "toe_back_left",
					"pivot": [3, 14.525, 20.25],
					"rotation": [10, 0, 0],
					"cubes": [
						{"origin": [3, 14.525, 18.25], "size": [2, 3, 2], "pivot": [3, 14.525, 20.25], "rotation": [0, 45, 0], "uv": [0, 46]}
					]
				},
				{
					"name": "leg_back_right",
					"parent": "body",
					"pivot": [-3, 19.025, 3.25],
					"cubes": [
						{"origin": [-4.5, 17.525, 2.25], "size": [3, 3, 9], "uv": [65, 40]}
					]
				},
				{
					"name": "leg_back2_right",
					"parent": "leg_back_right",
					"pivot": [-3, 19.025, 10.25],
					"cubes": [
						{"origin": [-8, 12.525, 9.25], "size": [10, 3, 9], "inflate": 0.01, "uv": [31, 22]}
					]
				},
				{
					"name": "leg_back3_right",
					"parent": "leg_back2_right",
					"pivot": [-3, 14.525, 14.25],
					"rotation": [10, 0, 0],
					"cubes": [
						{"origin": [-6.5, 14.525, 10.75], "size": [7, 6, 6], "uv": [0, 58]}
					]
				},
				{
					"name": "leg_back4_right",
					"parent": "leg_back3_right",
					"pivot": [-3, 20.525, 14.75],
					"cubes": [
						{"origin": [-5, 20.525, 11.75], "size": [4, 5, 3], "pivot": [-3, 20.525, 14.75], "rotation": [10, 0, 0], "uv": [80, 40]}
					]
				},
				{
					"name": "legspike_back_right",
					"parent": "leg_back3_right",
					"pivot": [-3, 20.525, 14.75],
					"rotation": [45, 0, 0],
					"cubes": [
						{"origin": [-3.5, 18.025, 14.75], "size": [1, 5, 6], "uv": [78, 61]},
						{"origin": [-3, 19.025, 20.75], "size": [0, 4, 7], "uv": [27, 27]}
					]
				},
				{
					"name": "toe_back_right",
					"parent": "leg_back2_right",
					"pivot": [-3, 13.525, 18.25],
					"cubes": [
						{"origin": [-4.5, 12.525, 16.75], "size": [3, 2, 3], "pivot": [-3, 13.525, 18.25], "rotation": [0, -45, 0], "uv": [20, 58]}
					]
				},
				{
					"name": "toe_back_right2",
					"parent": "toe_back_right",
					"pivot": [-3, 14.525, 20.25],
					"rotation": [10, 0, 0],
					"cubes": [
						{"origin": [-5, 14.525, 18.25], "size": [2, 3, 2], "pivot": [-3, 14.525, 20.25], "rotation": [0, -45, 0], "uv": [36, 38]}
					]
				}
			]
		}
	]
}