{
  "display": {
    "icon": {
      "item": "minecraft:bone_meal"
    },
    "title": {
      "translate": "advancements.cobblemon.bone_meal_apricorn"
    },
    "description": {
      "translate": "advancements.cobblemon.bone_meal_apricorn.description"
    }
  },
  "parent": "cobblemon:harvest_apricorn",
  "criteria": {
    "use_bone_meal": {
      "conditions": {
        "location": [
          {
            "condition": "minecraft:location_check",
            "predicate": {
              "block": {
                "tag": "cobblemon:apricorns"
              }
            }
          },
          {
            "condition": "minecraft:match_tool",
            "predicate": {
              "items": [
                "minecraft:bone_meal"
              ]
            }
          }
        ]
      },
      "trigger": "minecraft:item_used_on_block"
    }
  },
  "sends_telemetry_event": false
}
