{
  "parent": "cobblemon:first_evolution",
  "display": {
    "icon": {
      "item": "cobblemon:choice_band"
    },
    "title": {
      "translate": "advancements.cobblemon.first_battle_victory"
    },
    "description": {
      "translate": "advancements.cobblemon.first_battle_victory.description"
    },
    "frame": "task",
	"show_toast": true,
	"announce_to_chat": true,
	"hidden": true
  },
  "criteria": {
    "catch": {
      "trigger": "cobblemon:battles_won",
      "conditions": {
        "count": 1
      }
    }
  },
	"requirements": [
		[
			"catch"
		]
	],
  "sends_telemetry_event": false
}