{
	"credit": "EikoBiko",
	"textures": {
		"0": "cobblemon:block/revival_herb_stage_1",
		"particle": "cobblemon:block/revival_herb_stage_1"
	},
	"elements": [
		{
			"from": [10, -1, 2],
			"to": [10, 15, 8],
			"rotation": {"angle": -45, "axis": "y", "origin": [10, 7, 5]},
			"faces": {
				"north": {"uv": [0, 0, 0, 16], "texture": "#0"},
				"east": {"uv": [6, 0, 0, 16], "texture": "#0"},
				"south": {"uv": [0, 0, 0, 16], "texture": "#0"},
				"west": {"uv": [0, 0, 6, 16], "texture": "#0"},
				"up": {"uv": [6, 0, 0, 0], "rotation": 270, "texture": "#0"},
				"down": {"uv": [6, 0, 0, 0], "rotation": 90, "texture": "#0"}
			}
		},
		{
			"from": [0, -1, 9],
			"to": [6, 7, 9],
			"rotation": {"angle": 0, "axis": "y", "origin": [3, -1, 9]},
			"faces": {
				"north": {"uv": [6, 0, 0, 8], "texture": "#0"},
				"east": {"uv": [0, 0, 0, 8], "texture": "#0"},
				"south": {"uv": [0, 0, 6, 8], "texture": "#0"},
				"west": {"uv": [0, 0, 0, 8], "texture": "#0"},
				"up": {"uv": [6, 0, 12, 0], "rotation": 180, "texture": "#0"},
				"down": {"uv": [6, 0, 12, 0], "rotation": 180, "texture": "#0"}
			}
		},
		{
			"from": [12, -1, 10],
			"to": [12, 10, 16],
			"rotation": {"angle": 45, "axis": "y", "origin": [12, 2, 13]},
			"faces": {
				"north": {"uv": [0, 0, 0, 11], "texture": "#0"},
				"east": {"uv": [0, 0, 6, 11], "texture": "#0"},
				"south": {"uv": [0, 0, 0, 11], "texture": "#0"},
				"west": {"uv": [0, 0, 6, 11], "texture": "#0"},
				"up": {"uv": [6, 0, 12, 0], "rotation": 270, "texture": "#0"},
				"down": {"uv": [6, 0, 12, 0], "rotation": 90, "texture": "#0"}
			}
		},
		{
			"from": [6, 3, 1],
			"to": [14, 3, 9],
			"rotation": {"angle": 45, "axis": "y", "origin": [10, 3, 5]},
			"faces": {
				"north": {"uv": [14, 0, 22, 0], "texture": "#0"},
				"east": {"uv": [8, 0, 16, 0], "texture": "#0"},
				"south": {"uv": [8, 0, 16, 0], "texture": "#0"},
				"west": {"uv": [8, 0, 16, 0], "texture": "#0"},
				"up": {"uv": [8, 0, 16, 8], "texture": "#0"},
				"down": {"uv": [8, 0, 16, 8], "rotation": 270, "texture": "#0"}
			}
		},
		{
			"from": [7, 6, 2],
			"to": [13, 6, 8],
			"rotation": {"angle": -45, "axis": "y", "origin": [10, 6, 5]},
			"faces": {
				"north": {"uv": [8, 0, 14, 0], "texture": "#0"},
				"east": {"uv": [8, 0, 14, 0], "texture": "#0"},
				"south": {"uv": [8, 0, 14, 0], "texture": "#0"},
				"west": {"uv": [8, 0, 14, 0], "texture": "#0"},
				"up": {"uv": [6, 8, 12, 14], "rotation": 180, "texture": "#0"},
				"down": {"uv": [6, 8, 12, 14], "rotation": 90, "texture": "#0"}
			}
		},
		{
			"from": [9, 4, 10],
			"to": [15, 4, 16],
			"rotation": {"angle": 45, "axis": "y", "origin": [12, 4, 13]},
			"faces": {
				"north": {"uv": [8, 0, 14, 0], "texture": "#0"},
				"east": {"uv": [8, 0, 14, 0], "texture": "#0"},
				"south": {"uv": [8, 0, 14, 0], "texture": "#0"},
				"west": {"uv": [8, 0, 14, 0], "texture": "#0"},
				"up": {"uv": [6, 8, 12, 14], "texture": "#0"},
				"down": {"uv": [6, 8, 12, 14], "rotation": 270, "texture": "#0"}
			}
		},
		{
			"from": [8, 10, 3],
			"to": [12, 10, 7],
			"rotation": {"angle": 45, "axis": "y", "origin": [10, 10, 5]},
			"faces": {
				"north": {"uv": [8, 0, 14, 0], "texture": "#0"},
				"east": {"uv": [8, 0, 14, 0], "texture": "#0"},
				"south": {"uv": [8, 0, 14, 0], "texture": "#0"},
				"west": {"uv": [8, 0, 14, 0], "texture": "#0"},
				"up": {"uv": [12, 12, 16, 16], "texture": "#0"},
				"down": {"uv": [12, 12, 16, 16], "rotation": 270, "texture": "#0"}
			}
		},
		{
			"from": [1, 6, 7],
			"to": [5, 6, 11],
			"rotation": {"angle": 0, "axis": "y", "origin": [3, 6, 9]},
			"faces": {
				"north": {"uv": [8, 0, 14, 0], "texture": "#0"},
				"east": {"uv": [8, 0, 14, 0], "texture": "#0"},
				"south": {"uv": [8, 0, 14, 0], "texture": "#0"},
				"west": {"uv": [8, 0, 14, 0], "texture": "#0"},
				"up": {"uv": [12, 12, 16, 16], "rotation": 270, "texture": "#0"},
				"down": {"uv": [12, 12, 16, 16], "texture": "#0"}
			}
		},
		{
			"from": [0, 0, 0],
			"to": [16, 2, 16],
			"faces": {
				"north": {"uv": [0, 0, 16, 2], "texture": "#0"},
				"east": {"uv": [0, 0, 16, 2], "texture": "#0"},
				"south": {"uv": [0, 0, 16, 2], "texture": "#0"},
				"west": {"uv": [0, 0, 16, 2], "texture": "#0"},
				"up": {"uv": [0, 0, 16, 16], "texture": "#0"},
				"down": {"uv": [0, 0, 16, 16], "texture": "#0"}
			}
		}
	],
	"display": {},
	"groups": [
		{
			"name": "revival_herb",
			"origin": [8, 8, 8],
			"color": 0,
			"children": [0, 1, 2, 3, 4, 5, 6, 7, 8]
		}
	]
}