{
	"credit": "Made with Blockbench",
	"texture_size": [32, 16],
	"textures": {
		"0": "cobblemon:block/vivichoke_seed_stage_3",
		"particle": "cobblemon:block/vivichoke_seed_stage_3"
	},
	"elements": [
		{
			"from": [0, 0, 8],
			"to": [16, 11, 8],
			"rotation": {"angle": 0, "axis": "y", "origin": [8, 0, 8]},
			"faces": {
				"north": {"uv": [0, 0, 8, 11], "texture": "#0"},
				"east": {"uv": [0, 0, 0, 11], "texture": "#0"},
				"south": {"uv": [0, 0, 8, 11], "texture": "#0"},
				"west": {"uv": [0, 0, 0, 11], "texture": "#0"},
				"up": {"uv": [0, 16, 0, 0], "rotation": 270, "texture": "#0"},
				"down": {"uv": [0, 0, 0, 16], "rotation": 90, "texture": "#0"}
			}
		},
		{
			"from": [8, 0, 0],
			"to": [8, 11, 16],
			"rotation": {"angle": 0, "axis": "y", "origin": [8, 0, 8]},
			"faces": {
				"north": {"uv": [0, 0, 0, 11], "texture": "#0"},
				"east": {"uv": [0, 0, 8, 11], "texture": "#0"},
				"south": {"uv": [0, 0, 0, 11], "texture": "#0"},
				"west": {"uv": [0, 0, 8, 11], "texture": "#0"},
				"up": {"uv": [0, 16, 0, 0], "texture": "#0"},
				"down": {"uv": [0, 0, 0, 16], "texture": "#0"}
			}
		},
		{
			"from": [5.5, 11, 5.5],
			"to": [10.5, 15, 10.5],
			"rotation": {"angle": 0, "axis": "y", "origin": [8, 0, 8]},
			"faces": {
				"north": {"uv": [8, 5, 10.5, 9], "texture": "#0"},
				"east": {"uv": [10.5, 5, 8, 9], "texture": "#0"},
				"south": {"uv": [8, 5, 10.5, 9], "texture": "#0"},
				"west": {"uv": [10.5, 5, 8, 9], "texture": "#0"},
				"up": {"uv": [10.5, 5, 8, 0], "texture": "#0"},
				"down": {"uv": [10.5, 9, 8, 14], "texture": "#0"}
			}
		},
		{
			"from": [1.98959, 9.54594, 5.5],
			"to": [1.98959, 14.54594, 10.5],
			"rotation": {"angle": -45, "axis": "z", "origin": [8, 0, 8]},
			"faces": {
				"north": {"uv": [0, 0, 0, 3], "texture": "#0"},
				"east": {"uv": [10.5, 4, 13, 9], "texture": "#0"},
				"south": {"uv": [0, 0, 0, 3], "texture": "#0"},
				"west": {"uv": [13, 4, 15.5, 9], "texture": "#0"},
				"up": {"uv": [0, 5, 0, 0], "texture": "#0"},
				"down": {"uv": [0, 0, 0, 5], "texture": "#0"}
			}
		},
		{
			"from": [14.01041, 9.54594, 5.5],
			"to": [14.01041, 14.54594, 10.5],
			"rotation": {"angle": 45, "axis": "z", "origin": [8, 0, 8]},
			"faces": {
				"north": {"uv": [0, 0, 0, 3], "texture": "#0"},
				"east": {"uv": [13, 4, 15.5, 9], "texture": "#0"},
				"south": {"uv": [0, 0, 0, 3], "texture": "#0"},
				"west": {"uv": [10.5, 4, 13, 9], "texture": "#0"},
				"up": {"uv": [0, 5, 0, 0], "rotation": 180, "texture": "#0"},
				"down": {"uv": [0, 0, 0, 5], "rotation": 180, "texture": "#0"}
			}
		},
		{
			"from": [5, 10.98, 2],
			"to": [11, 10.98, 7],
			"rotation": {"angle": 45, "axis": "y", "origin": [8, 11, 8]},
			"faces": {
				"north": {"uv": [0, 0, 0, 3], "texture": "#0"},
				"east": {"uv": [13, 16, 15.5, 16], "texture": "#0"},
				"south": {"uv": [0, 0, 0, 3], "texture": "#0"},
				"west": {"uv": [10.5, 16, 13, 16], "texture": "#0"},
				"up": {"uv": [13, 9, 15.5, 4], "rotation": 180, "texture": "#0"},
				"down": {"uv": [10.5, 4, 13, 9], "rotation": 180, "texture": "#0"}
			}
		},
		{
			"from": [2, 10.99, 5],
			"to": [7, 10.99, 11],
			"rotation": {"angle": 45, "axis": "y", "origin": [8, 11, 8]},
			"faces": {
				"north": {"uv": [13, 16, 15.5, 16], "texture": "#0"},
				"east": {"uv": [0, 0, 0, 3], "texture": "#0"},
				"south": {"uv": [10.5, 16, 13, 16], "texture": "#0"},
				"west": {"uv": [0, 0, 0, 3], "texture": "#0"},
				"up": {"uv": [13, 9, 15.5, 4], "rotation": 90, "texture": "#0"},
				"down": {"uv": [10.5, 4, 13, 9], "rotation": 270, "texture": "#0"}
			}
		},
		{
			"from": [5, 10.98, 9],
			"to": [11, 10.98, 14],
			"rotation": {"angle": 45, "axis": "y", "origin": [8, 11, 8]},
			"faces": {
				"north": {"uv": [0, 0, 0, 3], "texture": "#0"},
				"east": {"uv": [10.5, 16, 13, 16], "texture": "#0"},
				"south": {"uv": [0, 0, 0, 3], "texture": "#0"},
				"west": {"uv": [13, 16, 15.5, 16], "texture": "#0"},
				"up": {"uv": [13, 9, 15.5, 4], "texture": "#0"},
				"down": {"uv": [10.5, 4, 13, 9], "texture": "#0"}
			}
		},
		{
			"from": [9, 10.99, 5],
			"to": [14, 10.99, 11],
			"rotation": {"angle": 45, "axis": "y", "origin": [8, 11, 8]},
			"faces": {
				"north": {"uv": [10.5, 16, 13, 16], "texture": "#0"},
				"east": {"uv": [0, 0, 0, 3], "texture": "#0"},
				"south": {"uv": [13, 16, 15.5, 16], "texture": "#0"},
				"west": {"uv": [0, 0, 0, 3], "texture": "#0"},
				"up": {"uv": [13, 9, 15.5, 4], "rotation": 270, "texture": "#0"},
				"down": {"uv": [10.5, 4, 13, 9], "rotation": 90, "texture": "#0"}
			}
		},
		{
			"from": [5.5, 9.54594, 14.01041],
			"to": [10.5, 14.54594, 14.01041],
			"rotation": {"angle": -45, "axis": "x", "origin": [8, 0, 8]},
			"faces": {
				"north": {"uv": [10.5, 4, 13, 9], "texture": "#0"},
				"east": {"uv": [0, 0, 0, 3], "texture": "#0"},
				"south": {"uv": [13, 4, 15.5, 9], "texture": "#0"},
				"west": {"uv": [0, 0, 0, 3], "texture": "#0"},
				"up": {"uv": [0, 5, 0, 0], "rotation": 270, "texture": "#0"},
				"down": {"uv": [0, 0, 0, 5], "rotation": 90, "texture": "#0"}
			}
		},
		{
			"from": [5.5, 9.54594, 1.98959],
			"to": [10.5, 14.54594, 1.98959],
			"rotation": {"angle": 45, "axis": "x", "origin": [8, 0, 8]},
			"faces": {
				"north": {"uv": [13, 4, 15.5, 9], "texture": "#0"},
				"east": {"uv": [0, 0, 0, 3], "texture": "#0"},
				"south": {"uv": [10.5, 4, 13, 9], "texture": "#0"},
				"west": {"uv": [0, 0, 0, 3], "texture": "#0"},
				"up": {"uv": [0, 5, 0, 0], "rotation": 90, "texture": "#0"},
				"down": {"uv": [0, 0, 0, 5], "rotation": 270, "texture": "#0"}
			}
		}
	],
	"groups": [
		{
			"name": "cobblemon:block/vivichoke_seed_stage_3",
			"origin": [8, 8, 8],
			"color": 0,
			"children": [0, 1, 2, 3, 4, 5, 6, 7, 8, 9, 10]
		}
	]
}